<?xml version="1.0" encoding="utf-8"?>
<!-- Generator: Adobe Illustrator 24.1.3, SVG Export Plug-In . SVG Version: 6.00 Build 0)  -->
<svg version="1.1" xmlns="http://www.w3.org/2000/svg" xmlns:xlink="http://www.w3.org/1999/xlink" x="0px" y="0px"
	 viewBox="0 0 449.59 235.88" style="enable-background:new 0 0 449.59 235.88;" xml:space="preserve">
<style type="text/css">
	.st0{fill:#2A2B2C;}
	.st1{fill:#696A6B;}
	.st2{fill:#5F6061;}
	.st3{fill:#FEFEFF;}
	.st4{fill:#FFFFFF;}
</style>
<g id="Layer_1">
	<g>
		<g>
			<path class="st4" d="M59.59,97.46c-8.53,5.17-17.08,10.3-24.76,16.73c-4.76,3.99-9.22,8.27-12.75,13.41
				c-8.23,12-6.77,22.2,4.41,31.54c10.29,8.61,22.37,13.78,34.91,17.99c24.05,8.07,48.83,12.79,74.02,15.33
				c34.34,3.45,68.8,4.2,103.29,3.89c27-0.25,53.96-1.28,80.77-4.47c27.5-3.27,54.63-8.56,80.41-19.19
				c9.63-3.97,18.8-8.83,26.19-16.44c7.79-8.03,8.73-16.87,2.84-26.39c-5.97-9.65-14.62-16.55-23.8-22.83
				c-4.77-3.26-9.8-6.14-14.72-9.2c0.27-1.29,1.08-0.65,1.76-0.5c15.68,3.83,30.44,9.73,42.89,20.28
				c9.33,7.91,15.15,17.81,14.5,30.47c-0.52,10.07-5.11,18.53-11.58,26.03c-9.89,11.48-22.36,19.53-35.71,26.27
				c-27.77,14.02-57.46,22.08-87.92,27.56c-34.14,6.14-68.56,8.68-103.23,7.73c-19.68-0.54-39.29-2.17-58.79-4.98
				c-23.26-3.35-46.21-8.06-68.54-15.41c-21.4-7.05-42.09-15.68-60.07-29.69c-6.89-5.37-13.04-11.45-17.58-19.01
				c-10.49-17.5-7.37-36.02,8.37-49.03c12.57-10.4,27.23-16.41,42.93-20.21C58.16,97,58.89,96.91,59.59,97.46z"/>
			<path class="st4" d="M392.16,97.34c-0.57,0.24-1.32-0.18-1.76,0.5c-0.57-0.21-1.14-0.43-2.01-0.75
				C389.96,96.46,391.09,96.59,392.16,97.34z"/>
			<path class="st4" d="M59.59,97.46c-0.72-0.04-1.45-0.08-2.17-0.12c0.73-0.58,1.66-0.92,2.46-0.56
				C60.8,97.2,60.03,97.36,59.59,97.46z"/>
		</g>
		<path class="st4" d="M381.69,0c-10.82-0.02-19.37,8.43-19.48,19.24c-0.11,10.81,8.72,19.71,19.47,19.64
			C392.4,38.8,401,30.13,401,19.39C401,8.59,392.46,0.01,381.69,0z M381.69,27.37c-4.39,0.04-8.02-3.52-8.02-7.88
			c0-4.27,3.72-8,7.98-7.99c4.25,0.01,7.95,3.79,7.9,8.07C389.5,23.81,385.95,27.33,381.69,27.37z"/>
		<g>
			<path class="st4" d="M95.4,111.05c4.2,3.6,8.22,6.27,12.06,8.01c3.84,1.74,7.98,2.61,12.42,2.61c2.28,0,4.44-0.3,6.48-0.9
				c2.04-0.6,3.84-1.5,5.4-2.7c1.56-1.2,2.82-2.73,3.78-4.59c0.96-1.86,1.44-4.05,1.44-6.57c0-1.68-0.33-3.36-0.99-5.04
				c-0.66-1.68-1.65-3.18-2.97-4.5c-1.32-1.32-2.94-2.4-4.86-3.24c-1.92-0.84-4.14-1.26-6.66-1.26c-2.76,0-5.25,0.27-7.47,0.81
				c-2.22,0.54-3.75,1.05-4.59,1.53l-6.84-11.16l28.79-26.63H89.46V31.7h74.68v20.87l-21.95,23.75c7.92,2.04,14.13,6,18.62,11.88
				c4.5,5.88,6.75,13.26,6.75,22.13c0,6-1.32,11.34-3.96,16.01c-2.64,4.68-6.09,8.61-10.35,11.79c-4.26,3.18-9.09,5.61-14.48,7.29
				c-5.4,1.68-10.86,2.52-16.37,2.52c-8.64,0-16.59-1.29-23.84-3.87c-7.26-2.58-13.59-6.27-18.98-11.07L95.4,111.05z"/>
			<path class="st4" d="M247.04,58.51c-2.88-1.56-5.85-2.67-8.91-3.33c-3.06-0.66-5.79-0.99-8.19-0.99c-2.16,0-4.41,0.36-6.75,1.08
				c-2.34,0.72-4.56,1.89-6.66,3.51c-2.1,1.62-3.99,3.75-5.67,6.39c-1.68,2.64-2.94,5.88-3.78,9.72c2.64-1.8,5.76-3.18,9.36-4.14
				c3.6-0.96,6.96-1.44,10.08-1.44c5.88,0,11.13,0.96,15.74,2.88c4.62,1.92,8.52,4.53,11.7,7.83c3.18,3.3,5.58,7.23,7.2,11.79
				c1.62,4.56,2.43,9.42,2.43,14.58c0,5.64-0.96,11.01-2.88,16.11c-1.92,5.1-4.71,9.54-8.37,13.32c-3.66,3.78-8.1,6.78-13.32,9
				c-5.22,2.22-11.13,3.33-17.72,3.33c-6.36,0-12.3-1.05-17.81-3.15c-5.52-2.1-10.29-5.49-14.31-10.17
				c-4.02-4.68-7.2-10.68-9.54-17.99c-2.34-7.32-3.51-16.19-3.51-26.63c0-8.4,1.17-16.31,3.51-23.75
				c2.34-7.44,5.79-13.97,10.35-19.61c4.56-5.64,10.17-10.1,16.83-13.41c6.66-3.3,14.3-4.95,22.94-4.95c6.36,0,11.7,0.72,16.01,2.16
				c4.32,1.44,8.1,3,11.34,4.68L247.04,58.51z M206.19,98.27c0.12,4.56,0.63,8.34,1.53,11.34c0.9,3,2.07,5.4,3.51,7.2
				c1.44,1.8,3.06,3.09,4.86,3.87c1.8,0.78,3.6,1.17,5.4,1.17c4.32,0,7.71-1.41,10.17-4.23c2.46-2.82,3.69-6.39,3.69-10.71
				c0-4.68-1.41-8.22-4.23-10.62c-2.82-2.4-6.15-3.66-9.99-3.78c-3.24,0-6.06,0.54-8.46,1.62C210.27,95.21,208.11,96.6,206.19,98.27
				z"/>
			<path class="st4" d="M317.04,147.94c-7.44,0-13.98-1.44-19.61-4.32c-5.64-2.88-10.35-6.96-14.13-12.24
				c-3.78-5.28-6.63-11.57-8.55-18.89c-1.92-7.32-2.88-15.41-2.88-24.29c0-8.88,0.96-16.97,2.88-24.29
				c1.92-7.32,4.77-13.61,8.55-18.89c3.78-5.28,8.48-9.36,14.13-12.24c5.64-2.88,12.17-4.32,19.61-4.32
				c7.92,0,14.72,1.44,20.42,4.32c5.7,2.88,10.35,6.96,13.95,12.24c3.6,5.28,6.27,11.58,8.01,18.89c1.74,7.32,2.61,15.42,2.61,24.29
				c0,8.88-0.87,16.98-2.61,24.29c-1.74,7.32-4.41,13.62-8.01,18.89c-3.6,5.28-8.25,9.36-13.95,12.24
				C331.76,146.5,324.96,147.94,317.04,147.94z M317.04,120.23c2.88,0,5.22-0.84,7.02-2.52c1.8-1.68,3.24-3.96,4.32-6.84
				c1.08-2.88,1.83-6.27,2.25-10.17c0.42-3.9,0.63-8.07,0.63-12.51c0-4.44-0.21-8.61-0.63-12.51c-0.42-3.9-1.17-7.29-2.25-10.17
				c-1.08-2.88-2.52-5.16-4.32-6.84c-1.8-1.68-4.14-2.52-7.02-2.52c-2.88,0-5.25,0.84-7.11,2.52c-1.86,1.68-3.3,3.96-4.32,6.84
				c-1.02,2.88-1.74,6.27-2.16,10.17c-0.42,3.9-0.63,8.07-0.63,12.51c0,4.44,0.21,8.61,0.63,12.51c0.42,3.9,1.14,7.29,2.16,10.17
				c1.02,2.88,2.46,5.16,4.32,6.84C311.79,119.39,314.16,120.23,317.04,120.23z"/>
		</g>
	</g>
</g>
<g id="Layer_2">
</g>
</svg>
