<?xml version="1.0" standalone="no"?>
<!DOCTYPE svg PUBLIC "-//W3C//DTD SVG 1.1//EN" "http://www.w3.org/Graphics/SVG/1.1/DTD/svg11.dtd" >
<svg xmlns="http://www.w3.org/2000/svg">
<metadata></metadata>
<defs>
<font id="effra_heavyregular" horiz-adv-x="1148" >
<font-face units-per-em="2048" ascent="1638" descent="-410" />
<missing-glyph horiz-adv-x="327" />
<glyph unicode="&#xfb01;" horiz-adv-x="1239" d="M31 696v267h147v12q0 86 27.5 155.5t66.5 116.5q70 84 180.5 120t233.5 36q117 0 226.5 -26.5t187.5 -73.5l-125 -232q-66 29 -132.5 48.5t-137.5 19.5q-37 0 -70 -7.5t-57.5 -24.5t-39 -46t-14.5 -72v-26h609v-963h-347v696h-262v-696h-346v696h-147z" />
<glyph unicode="&#xfb02;" horiz-adv-x="1232" d="M31 696v267h147v18q0 117 42 198t114 131t166 71.5t198 21.5q111 0 225.5 -25.5t209.5 -85.5v-1292h-347v1120q-23 10 -51 13.5t-53 3.5q-72 0 -115 -35t-43 -109v-30h162v-267h-162v-696h-346v696h-147z" />
<glyph unicode="&#xfb03;" horiz-adv-x="1875" d="M31 696v267h147v12q0 213 123 325q53 49 128 76t171 27q63 0 124.5 -17.5t111.5 -52.5l-111 -233q-53 31 -96 30q-14 0 -32.5 -5t-35 -18t-28 -38t-11.5 -61v-45h293v12q0 86 27.5 155.5t66.5 116.5q70 84 180.5 120t233.5 36q117 0 226.5 -26.5t187.5 -73.5l-125 -232 q-66 29 -132.5 48.5t-138.5 19.5q-37 0 -69.5 -7.5t-57 -24.5t-39 -46t-14.5 -72v-26h608v-963h-346v696h-262v-696h-346v696h-289v-696h-348v696h-147z" />
<glyph unicode="&#xfb04;" horiz-adv-x="1869" d="M31 696v267h147v12q0 213 123 325q53 49 128 76t171 27q63 0 124.5 -17.5t111.5 -52.5l-111 -233q-53 31 -96 30q-14 0 -32.5 -5t-35 -18t-28 -38t-11.5 -61v-45h293v18q0 117 42 198t113.5 131t166 71.5t198.5 21.5q111 0 225.5 -25.5t208.5 -85.5v-1292h-346v1120 q-23 10 -51.5 13.5t-52.5 3.5q-72 0 -115 -35t-43 -109v-30h162v-267h-162v-696h-346v696h-289v-696h-348v696h-147z" />
<glyph horiz-adv-x="0" />
<glyph unicode="&#xd;" horiz-adv-x="358" />
<glyph unicode=" "  horiz-adv-x="327" />
<glyph unicode="&#x09;" horiz-adv-x="327" />
<glyph unicode="&#xa0;" horiz-adv-x="327" />
<glyph unicode="!" horiz-adv-x="624" d="M123 1366h379l-21 -903h-338zM137 0v348h350v-348h-350z" />
<glyph unicode="&#x22;" horiz-adv-x="933" d="M86 821v545h313v-545h-313zM535 821v545h313v-545h-313z" />
<glyph unicode="#" horiz-adv-x="1460" d="M80 274v248h239l58 215h-168v248h235l84 305h271l-82 -305h227l84 305h272l-81 -305h161v-248h-229l-57 -215h155v-248h-223l-74 -274h-272l72 274h-228l-73 -274h-271l72 274h-172zM592 522h227l58 215h-228z" />
<glyph unicode="$" d="M31 158l196 252q76 -72 172.5 -107t188.5 -35q20 0 43.5 4t43 15.5t32 29t12.5 45.5q0 49 -58.5 77t-140.5 57q-72 25 -147.5 55.5t-139 78.5t-104.5 117.5t-41 170.5q0 88 28.5 156.5t79 117.5t117 80t142.5 45v176h241v-174q92 -12 177 -48t157 -100l-184 -241 q-53 45 -123 70.5t-131 25.5q-25 0 -52.5 -3t-51 -13.5t-40 -28.5t-16.5 -51q0 -27 16.5 -45.5t45 -33.5t65.5 -28.5t78 -25.5q70 -23 145.5 -52.5t139 -76.5t104.5 -119t41 -178q0 -82 -30.5 -146.5t-81 -113t-118 -81t-141.5 -46.5v-205h-241v194q-117 12 -227.5 56.5 t-196.5 128.5z" />
<glyph unicode="%" horiz-adv-x="1894" d="M94 954q0 80 20.5 147.5t61.5 117t104.5 77t147.5 27.5t147 -27.5t105 -77t62.5 -117t20.5 -147.5t-20.5 -148.5t-62.5 -117.5t-105 -77.5t-147 -28.5t-147.5 28.5t-104.5 77.5t-61.5 117.5t-20.5 148.5zM335 954q0 -25 3.5 -55.5t12.5 -58t27.5 -46t49.5 -18.5t49 18.5 t27.5 46t12.5 58.5t3 55q0 25 -3 55.5t-12.5 58.5t-28 46.5t-48.5 18.5q-31 0 -49.5 -18.5t-27.5 -46.5t-12.5 -58.5t-3.5 -55.5zM385 0l815 1290h293l-807 -1290h-301zM1129 352q0 80 20.5 147.5t61.5 117t104.5 77t147.5 27.5t147 -27.5t105 -77t62.5 -117t20.5 -147.5 t-20.5 -148.5t-62.5 -117.5t-105 -77.5t-147 -28.5t-147.5 28.5t-104.5 77.5t-61.5 117.5t-20.5 148.5zM1370 352q0 -25 3.5 -55.5t12.5 -58t27.5 -46t49.5 -18.5t49 18.5t27.5 46t12.5 58.5t3 55q0 25 -3 55.5t-12.5 58.5t-28 46.5t-48.5 18.5q-31 0 -49.5 -18.5 t-27.5 -46.5t-12.5 -58.5t-3.5 -55.5z" />
<glyph unicode="&#x26;" horiz-adv-x="1413" d="M57 375q0 127 65.5 236.5t192.5 181.5q-47 72 -58 127t-11 102q0 80 32.5 148.5t92 120.5t141.5 82t180 30q129 0 236.5 -62.5t167.5 -199.5l-250 -146q-20 51 -54 85t-87 34q-49 0 -83 -29.5t-34 -78.5q0 -35 20.5 -67t42.5 -58l291 -340q41 41 87 92t99 110l228 -206 q-59 -66 -113.5 -122.5t-101.5 -103.5l266 -311h-426l-84 98q-55 -41 -105.5 -65.5t-96.5 -40t-91 -20.5t-92 -5q-92 0 -175 26.5t-145.5 79t-98.5 128t-36 174.5zM393 408q0 -66 48 -102t110 -36q39 0 75 11.5t81 42.5l-213 251q-53 -35 -77 -77.5t-24 -89.5z" />
<glyph unicode="'" horiz-adv-x="485" d="M86 821v545h313v-545h-313z" />
<glyph unicode="(" horiz-adv-x="710" d="M113 629q0 156 24.5 292t57 243.5t64.5 180t48 101.5h352q-8 -14 -38.5 -86t-64.5 -182.5t-61.5 -252t-27.5 -296.5q0 -156 27.5 -298.5t61.5 -253t64.5 -182t38.5 -85.5h-352q-16 29 -48 101.5t-64.5 180t-57 244.5t-24.5 293z" />
<glyph unicode=")" horiz-adv-x="710" d="M51 -190q8 14 39 85.5t64.5 182t61.5 253t28 298.5t-28 297t-61.5 251.5t-64.5 182.5t-39 86h352q14 -29 47 -101.5t66 -180t57.5 -244t24.5 -291.5q0 -156 -24.5 -293t-57.5 -244.5t-65.5 -180.5t-47.5 -101h-352z" />
<glyph unicode="*" horiz-adv-x="995" d="M82 975l215 86l-215 86l135 233l174 -131l-31 213h271l-27 -217l174 129l135 -233l-215 -76l215 -84l-135 -233l-176 131l29 -220h-271l33 213l-176 -131z" />
<glyph unicode="+" d="M166 512v270h268v279h279v-279h270v-270h-270v-274h-279v274h-268z" />
<glyph unicode="," horiz-adv-x="587" d="M102 0v373h383v-373l-170 -293h-211l127 293h-129z" />
<glyph unicode="-" horiz-adv-x="921" d="M123 408v331h676v-331h-676z" />
<glyph unicode="." horiz-adv-x="598" d="M113 0v371h372v-371h-372z" />
<glyph unicode="/" horiz-adv-x="964" d="M35 -33l545 1436h350l-539 -1436h-356z" />
<glyph unicode="0" horiz-adv-x="1177" d="M76 647q0 152 32.5 277t97 215t161 139t223.5 49q135 0 232.5 -49t158.5 -139t91 -215t30 -277t-30 -276.5t-91 -214.5t-158.5 -139.5t-232.5 -49.5q-127 0 -223.5 49.5t-161 139.5t-97 215t-32.5 276zM428 647q0 -76 7 -142.5t24.5 -115.5t49.5 -77.5t81 -28.5 t79.5 28.5t49 77.5t26 115.5t7.5 142.5t-7.5 142.5t-26 115.5t-49 78t-79.5 29t-81 -29t-49.5 -78t-24.5 -115.5t-7 -142.5z" />
<glyph unicode="1" horiz-adv-x="966" d="M16 1077l387 213h277v-995h209v-295h-768v295h225v618l-182 -98z" />
<glyph unicode="2" horiz-adv-x="1081" d="M31 1067q31 51 77 98t108.5 83t142 57.5t178.5 21.5q109 0 192.5 -32.5t140 -87t86 -123t29.5 -140.5q0 -88 -37 -158.5t-93 -129t-122.5 -105.5t-124 -89t-96.5 -80t-41 -75h518v-307h-926v188q0 100 43.5 180.5t106.5 145t139 118.5t139.5 101t106.5 91t43 91 q0 43 -37 79t-112 36q-41 0 -75 -14.5t-60.5 -34.5t-45 -44t-30.5 -42z" />
<glyph unicode="3" horiz-adv-x="1114" d="M0 137l180 250q72 -61 137.5 -91t141.5 -30q39 0 73.5 10.5t61.5 31t43 52t16 74.5q0 29 -11 57.5t-33.5 51t-55.5 37t-76 14.5q-47 0 -85 -9.5t-52 -17.5l-78 127l328 303h-477v293h850v-237l-250 -271q135 -35 211.5 -135t76.5 -252q0 -102 -45 -182t-117.5 -134 t-164.5 -83t-187 -29q-147 0 -271 44t-216 126z" />
<glyph unicode="4" horiz-adv-x="1155" d="M51 225v250l551 815h342v-788h129v-277h-129v-225h-317v225h-576zM365 502h262v385z" />
<glyph unicode="5" horiz-adv-x="1042" d="M-14 150l180 233q55 -51 117.5 -84t138.5 -33q100 0 148 52.5t48 115.5q0 33 -12 63.5t-36.5 55.5t-61.5 40t-84 15q-37 0 -88 -9t-94 -32l-148 109l96 614h723v-293h-493l-25 -163q14 4 55.5 8t67.5 4q96 0 177 -30t139.5 -83t91 -131t32.5 -172t-32.5 -178t-97 -147.5 t-157.5 -100.5t-216 -37q-158 0 -269.5 50.5t-199.5 132.5z" />
<glyph unicode="6" horiz-adv-x="1128" d="M76 625q0 143 40 270t117.5 223t191.5 152.5t261 56.5q109 0 182.5 -24.5t128.5 -53.5l-114 -264q-49 27 -101.5 38t-93.5 11q-37 0 -77 -12t-75.5 -40t-64.5 -73t-43 -110q45 31 106.5 47t114.5 16q100 0 179 -32.5t133.5 -89t82 -134.5t27.5 -166q0 -96 -32.5 -183 t-95 -151.5t-152 -102.5t-201.5 -38q-109 0 -203 36t-162.5 116t-108.5 204.5t-40 303.5zM418 532q2 -78 17.5 -129t40 -81.5t55 -44t61.5 -13.5q74 0 116 48t42 122q0 80 -48.5 121t-113.5 43q-55 0 -96 -18.5t-74 -47.5z" />
<glyph unicode="7" horiz-adv-x="1015" d="M33 993v297h903v-276q-84 -143 -148.5 -274.5t-117 -255.5t-94 -243.5t-80.5 -240.5h-357q37 119 92.5 260t118 277.5t124 257t110.5 198.5h-551z" />
<glyph unicode="8" horiz-adv-x="1208" d="M78 371q0 125 59.5 208t151.5 130q-59 37 -105.5 106.5t-46.5 161.5q0 74 33 137.5t93.5 111.5t146.5 74.5t192 26.5t192.5 -26.5t148 -74.5t95 -111.5t33.5 -137.5q0 -92 -46 -162t-105 -106q96 -47 153 -128t57 -206q0 -70 -31.5 -142.5t-97 -131t-165 -96.5 t-234.5 -38q-133 0 -231.5 35t-164 91.5t-97 129t-31.5 148.5zM420 387q0 -37 15.5 -65.5t41 -47t58 -27.5t67.5 -9t67.5 9t58.5 27.5t41 47t15 65.5q0 39 -16 68.5t-43 51t-58.5 36t-64.5 24.5q-33 -10 -65.5 -24.5t-58 -36t-42 -51t-16.5 -68.5zM449 950q0 -59 45 -99 t108 -60q63 20 108.5 60t45.5 99q0 63 -43 101.5t-111 38.5t-110.5 -38t-42.5 -102z" />
<glyph unicode="9" horiz-adv-x="1116" d="M57 852q0 96 32 183t92.5 151.5t147.5 102.5t199 38q109 0 202 -37t163 -118.5t108.5 -215t38.5 -325.5q0 -121 -32.5 -240t-103 -214t-185.5 -153.5t-277 -58.5q-109 0 -191.5 25.5t-135.5 56.5l125 264q49 -29 104 -41t96 -12q123 0 180.5 57.5t73.5 171.5 q-47 -29 -108.5 -44t-122.5 -15q-102 0 -178 35t-126 94t-76 135t-26 160zM379 858q0 -72 40 -116t105 -46q59 0 99.5 17.5t78.5 52.5v14q0 133 -48 190.5t-117 57.5q-74 0 -116 -48t-42 -122z" />
<glyph unicode=":" horiz-adv-x="598" d="M113 0v371h372v-371h-372zM113 592v371h372v-371h-372z" />
<glyph unicode=";" horiz-adv-x="593" d="M112 0v373h383v-373l-170 -293h-211l127 293h-129zM119 592v371h372v-371h-372z" />
<glyph unicode="&#x3c;" d="M143 545v198l723 383l123 -243l-469 -234l486 -233l-140 -254z" />
<glyph unicode="=" d="M166 295v270h817v-270h-817zM166 698v270h817v-270h-817z" />
<glyph unicode="&#x3e;" d="M143 416l486 233l-469 234l123 243l723 -383v-198l-723 -383z" />
<glyph unicode="?" horiz-adv-x="1107" d="M51 1198q92 94 216 150.5t284 56.5q92 0 176 -22.5t149.5 -71.5t104.5 -126t39 -184q0 -59 -13.5 -105t-36 -81t-50 -62.5t-56.5 -50.5q-31 -27 -62.5 -50t-56 -48.5t-40 -58.5t-15.5 -76v-8h-317v10q0 72 13 124t35.5 92t50.5 67.5t56 50.5q27 20 52.5 38.5t45 38t32 41 t12.5 50.5q0 33 -15.5 54.5t-38 33.5t-51 17t-53.5 5q-72 0 -139.5 -34.5t-120.5 -87.5zM354 0v348h351v-348h-351z" />
<glyph unicode="@" horiz-adv-x="1970" d="M74 545q0 215 76.5 375.5t205.5 268t299 161t357 53.5q238 0 405.5 -64.5t274 -176t155.5 -262t49 -325.5q0 -166 -38.5 -280.5t-102 -187t-144.5 -105.5t-165 -33q-55 0 -97 7.5t-74 20.5t-59.5 35.5t-54.5 53.5q-41 -47 -107.5 -83t-185.5 -36q-57 0 -116.5 13.5 t-108.5 46t-80 89t-31 142.5t36 150.5t97.5 106.5t144.5 62.5t177 20.5q41 0 59.5 -2t53.5 -6v49q0 31 -13.5 50.5t-35 31.5t-48 16t-53.5 4q-92 0 -156.5 -23.5t-107.5 -53.5l-135 196q61 49 169.5 91t278.5 42q201 0 313.5 -94t112.5 -291v-276q0 -74 19.5 -103.5 t62.5 -29.5q31 0 59.5 27.5t49 76.5t33 117.5t12.5 152.5q0 162 -48 279t-134 192.5t-205 111.5t-262 36q-125 0 -250 -34t-225.5 -110.5t-164 -200.5t-63.5 -302q0 -92 17.5 -171t41 -138.5t45 -98.5t29.5 -51l-192 -125q-18 20 -48 72.5t-58.5 129.5t-49 174t-20.5 208z M868 307q0 -104 105 -104q53 0 90 31.5t37 117.5v66q-10 2 -27.5 4t-50.5 2q-86 0 -120 -35t-34 -82z" />
<glyph unicode="A" horiz-adv-x="1441" d="M20 0l502 1366h416l483 -1366h-391l-88 283h-457l-90 -283h-375zM559 547h309l-151 502z" />
<glyph unicode="B" horiz-adv-x="1296" d="M123 0v1366h555q143 0 237.5 -31.5t149.5 -82t76.5 -115t21.5 -127.5q0 -59 -19.5 -106.5t-49 -83.5t-64.5 -60.5t-65 -34.5q39 -12 86 -36.5t88 -65.5t69.5 -98.5t28.5 -133.5q0 -205 -142.5 -298t-416.5 -93h-555zM477 258h185q31 0 67.5 5t67 21.5t51 49.5t20.5 88 q0 51 -20.5 83t-51 48t-67.5 22.5t-67 6.5h-185v-324zM477 817h158q63 0 113.5 32t50.5 109q0 43 -14.5 73t-38 46.5t-53 23.5t-58.5 7h-158v-291z" />
<glyph unicode="C" horiz-adv-x="1398" d="M70 680q0 156 51 288t145 229t225.5 151.5t288.5 54.5q178 0 330 -59.5t256 -206.5l-240 -242q-57 78 -137 125t-182 47q-86 0 -153.5 -28.5t-113.5 -80t-71 -120t-25 -148.5q0 -82 26 -151.5t73 -120.5t113.5 -80t148.5 -29q119 0 193.5 42t146.5 132l244 -229 q-231 -289 -609 -289q-158 0 -289 53.5t-224 147.5t-145 225t-52 289z" />
<glyph unicode="D" horiz-adv-x="1449" d="M123 0v1366h524q158 0 292 -41t232.5 -125t153.5 -215t55 -309q0 -170 -56 -296t-154.5 -211t-233.5 -127t-291 -42h-522zM485 319h148q178 0 275.5 101.5t97.5 263.5q0 82 -22.5 148.5t-69 114.5t-116 75t-165.5 27h-148v-730z" />
<glyph unicode="E" horiz-adv-x="1214" d="M123 0v1366h983v-313h-621v-211h510v-295h-510v-234h664v-313h-1026z" />
<glyph unicode="F" horiz-adv-x="1116" d="M123 0v1366h952v-317h-590v-265h457v-299h-457v-485h-362z" />
<glyph unicode="G" horiz-adv-x="1480" d="M70 686q0 156 52 288t146 227t224.5 148.5t287.5 53.5q170 0 318.5 -56.5t249.5 -187.5l-236 -237q-63 63 -136 104t-169 41q-88 0 -155.5 -30.5t-113.5 -83t-71 -123t-25 -150.5q0 -88 27 -158.5t74 -121t114.5 -78t151.5 -27.5q68 0 129 16.5t119 57.5v131h-238v280 h561v-616q-123 -104 -281.5 -150.5t-318.5 -46.5q-166 0 -298 50.5t-224 143.5t-140 226t-48 299z" />
<glyph unicode="H" horiz-adv-x="1474" d="M123 0v1366h362v-500h504v500h363v-1366h-363v535h-504v-535h-362z" />
<glyph unicode="I" horiz-adv-x="608" d="M123 0v1366h362v-1366h-362z" />
<glyph unicode="J" horiz-adv-x="1105" d="M20 174l216 223q39 -45 95 -79.5t130 -34.5q94 0 133 50t39 138v895h362v-936q0 -111 -37.5 -198t-105.5 -147t-159 -91t-197 -31q-135 0 -262.5 52.5t-213.5 158.5z" />
<glyph unicode="K" horiz-adv-x="1409" d="M123 0v1366h362v-512l408 512h424l-455 -526l527 -840h-441l-334 553l-129 -152v-401h-362z" />
<glyph unicode="L" horiz-adv-x="1159" d="M123 0v1366h362v-1047h633v-319h-995z" />
<glyph unicode="M" horiz-adv-x="1667" d="M94 0l64 1366h346l332 -596l325 596h348l64 -1366h-367l-32 801l-240 -467h-199l-266 467l-27 -801h-348z" />
<glyph unicode="N" horiz-adv-x="1458" d="M123 0v1366h330l524 -762v762h358v-1366h-309l-545 784v-784h-358z" />
<glyph unicode="O" horiz-adv-x="1560" d="M70 686q0 156 53 288t148.5 227t225.5 148.5t283 53.5q154 0 285 -53.5t225 -148.5t147.5 -227t53.5 -288t-53.5 -288t-147.5 -227t-225 -149.5t-285 -54.5t-283.5 54.5t-225 149.5t-148.5 227t-53 288zM444 686q0 -78 22.5 -147.5t65.5 -120.5t105.5 -81t142.5 -30 t142.5 30t105.5 81t65.5 120.5t22.5 147.5t-22.5 147.5t-65.5 121t-105.5 81t-142.5 29.5t-142.5 -29.5t-105.5 -81t-65.5 -121t-22.5 -147.5z" />
<glyph unicode="P" horiz-adv-x="1224" d="M125 0v1366h557q111 0 200 -29.5t152.5 -86t98 -141.5t34.5 -196q0 -104 -35.5 -189t-98 -145.5t-149.5 -92t-192 -31.5h-213v-455h-354zM479 739h172q74 0 117 47.5t43 120.5q0 78 -41 125t-121 47h-170v-340z" />
<glyph unicode="Q" horiz-adv-x="1560" d="M70 686q0 156 53 288t148.5 227t225.5 148.5t283 53.5q154 0 285 -53.5t225 -148.5t147.5 -227t53.5 -288t-52.5 -287t-148.5 -227l135 -162l-182 -149l-145 174q-72 -33 -151 -50.5t-167 -17.5q-154 0 -283.5 54.5t-225 149.5t-148.5 227t-53 288zM444 686 q0 -78 22.5 -147.5t65.5 -120.5t105.5 -81t142.5 -30q23 0 43.5 3t40.5 7l-139 170l180 150l150 -182q31 47 46 106.5t15 124.5q0 78 -22.5 147.5t-65.5 121t-105.5 81t-142.5 29.5t-142.5 -29.5t-105.5 -81t-65.5 -121t-22.5 -147.5z" />
<glyph unicode="R" horiz-adv-x="1286" d="M123 0v1366h565q111 0 200 -28.5t152.5 -85t98.5 -140.5t35 -194q0 -135 -59.5 -234.5t-158.5 -159.5l293 -524h-389l-231 465h-152v-465h-354zM477 750h176q72 0 117 44t45 117q0 78 -43 123t-121 45h-174v-329z" />
<glyph unicode="S" horiz-adv-x="1208" d="M10 168l219 264q57 -57 149.5 -104t203.5 -47q27 0 55.5 5t51 17t36.5 32.5t14 53.5q0 53 -54 88t-159 70l-75 24q-63 20 -128 53t-116 79.5t-83 108.5t-32 146q0 94 35 175t101.5 141.5t165 94.5t227.5 34q100 0 182 -18.5t143.5 -45t104.5 -57.5t65 -55l-184 -234 q-72 53 -149.5 87t-159.5 34q-27 0 -53.5 -6t-48 -18.5t-35 -32t-13.5 -47.5q0 -31 15.5 -53.5t42 -39t64.5 -30t81 -27.5l65 -20q70 -23 141.5 -52.5t129 -80t94.5 -125t37 -183.5q0 -94 -44 -174t-119 -137t-176.5 -89t-215.5 -32q-205 0 -343.5 54.5t-234.5 146.5z" />
<glyph unicode="T" horiz-adv-x="1284" d="M41 1049v317h1202v-317h-416v-1049h-366v1049h-420z" />
<glyph unicode="U" horiz-adv-x="1406" d="M115 532v834h362v-801q0 -113 52.5 -184.5t172.5 -71.5q121 0 172.5 73t51.5 183v801h366v-834q0 -131 -43 -236.5t-121.5 -179t-186 -112.5t-236.5 -39t-238 39t-187.5 111.5t-121.5 178t-43 238.5z" />
<glyph unicode="V" horiz-adv-x="1417" d="M20 1366h396l307 -950l287 950h387l-498 -1366h-383z" />
<glyph unicode="W" horiz-adv-x="1906" d="M20 1366h383l177 -915l215 882h329l217 -882l175 915h370l-340 -1366h-379l-215 864l-215 -864h-385z" />
<glyph unicode="X" horiz-adv-x="1386" d="M0 0l465 698l-465 668h446l228 -354l219 354h403l-424 -633l514 -733h-452l-272 420l-265 -420h-397z" />
<glyph unicode="Y" horiz-adv-x="1376" d="M20 1366h416l266 -487l250 487h404l-488 -819v-547h-362v545z" />
<glyph unicode="Z" horiz-adv-x="1275" d="M61 0v281l691 768h-656v317h1104v-279l-678 -770h692v-317h-1153z" />
<glyph unicode="[" horiz-adv-x="753" d="M143 -190v1636h549v-262h-243v-1108h243v-266h-549z" />
<glyph unicode="\" horiz-adv-x="964" d="M35 1403h350l545 -1436h-357z" />
<glyph unicode="]" horiz-adv-x="753" d="M61 76h244v1108h-244v262h549v-1636h-549v266z" />
<glyph unicode="^" horiz-adv-x="1161" d="M72 600l368 768h281l369 -768h-353l-155 363l-160 -363h-350z" />
<glyph unicode="_" horiz-adv-x="1024" d="M0 -133h1024v-113h-1024v113z" />
<glyph unicode="`" horiz-adv-x="901" d="M240 1397h325l99 -291h-240z" />
<glyph unicode="a" horiz-adv-x="1079" d="M47 258q0 86 37 152.5t100.5 110.5t147.5 66.5t176 22.5q47 0 74.5 -2t62.5 -6v19q0 37 -15.5 60.5t-39 36.5t-51 18t-54.5 5q-92 0 -161.5 -23.5t-112.5 -53.5l-131 198q61 49 171.5 90t283.5 41q100 0 182 -25.5t141.5 -77.5t92 -129t32.5 -179v-582h-326l-12 90 q-66 -70 -132.5 -96.5t-164.5 -26.5q-47 0 -100 13.5t-98.5 46t-74 89t-28.5 142.5zM383 309q0 -106 115 -106q27 0 53.5 7t46.5 24.5t33.5 46t13.5 71.5v64q-35 8 -94 8q-86 0 -127 -34t-41 -81z" />
<glyph unicode="b" horiz-adv-x="1165" d="M100 45v1321h346v-481q27 31 61 49t67.5 29.5t63.5 15.5t50 4q100 0 179 -40t131.5 -106.5t80 -152.5t27.5 -180q0 -256 -147.5 -396.5t-434.5 -140.5q-123 0 -235.5 24.5t-188.5 53.5zM446 270q47 -20 121 -20q84 0 137.5 57.5t53.5 181.5q0 33 -8.5 69t-26.5 64.5 t-47 47t-68 18.5q-86 0 -124 -53t-38 -133v-232z" />
<glyph unicode="c" horiz-adv-x="989" d="M59 483q0 109 40 202t111 163t166 108.5t204 38.5q143 0 240.5 -45t158.5 -114l-203 -232q-23 27 -63.5 57.5t-122.5 30.5q-72 0 -127 -56t-55 -153q0 -47 15 -87t39.5 -67.5t57.5 -43t70 -15.5q39 0 69.5 9.5t53 23.5t38 29.5l25.5 25.5l203 -231q-27 -31 -66 -59.5 t-89 -51t-111.5 -36t-132.5 -13.5q-109 0 -204 37t-166 104.5t-111 163t-40 211.5z" />
<glyph unicode="d" horiz-adv-x="1175" d="M59 473q0 109 37 202t105.5 161.5t164 107.5t212.5 39q47 0 85.5 -7t65.5 -15v405h346v-1366h-315l-19 98q-53 -63 -124.5 -94t-139.5 -31q-78 0 -142.5 23.5t-115.5 66.5q-78 66 -119 173.5t-41 236.5zM408 461q0 -86 42 -138.5t128 -52.5q76 0 113.5 45t37.5 127v232 q-53 18 -113 18q-92 0 -150 -57t-58 -174z" />
<glyph unicode="e" horiz-adv-x="1091" d="M59 477q0 96 31 189.5t93.5 166t157.5 117.5t222 45q98 0 185.5 -33.5t152 -102t101 -172t36.5 -243.5v-65h-651q2 -25 13.5 -51.5t39 -50t73.5 -38t114 -14.5q88 0 160.5 22.5t113.5 47.5l109 -225q-25 -14 -63 -32t-89 -33t-114.5 -26.5t-135.5 -11.5 q-266 0 -407.5 134.5t-141.5 375.5zM389 584h342q0 25 -10 51.5t-31.5 49t-53.5 37.5t-77 15q-43 0 -75.5 -15t-53 -37.5t-31 -49.5t-10.5 -51z" />
<glyph unicode="f" horiz-adv-x="761" d="M31 696v267h147v36q0 98 33 173t90 126.5t136 78t173 26.5q90 0 169 -25.5t139 -72.5l-144 -224q-29 20 -62.5 32.5t-70.5 12.5q-53 0 -85 -32.5t-32 -87.5v-43h209v-267h-209v-696h-346v696h-147z" />
<glyph unicode="g" horiz-adv-x="1161" d="M59 461q0 125 41 223t116 163.5t178.5 100.5t226.5 35q115 0 224 -20.5t216 -59.5v-825q0 -274 -133 -393t-389 -119q-109 0 -213.5 22.5t-196.5 81.5l131 240q55 -35 117.5 -54.5t128.5 -19.5q106 0 158.5 48t52.5 161v33q-47 -43 -108.5 -55.5t-121.5 -12.5 q-102 0 -182 33t-134 92.5t-83 142t-29 183.5zM406 473q0 -96 46 -143t115 -47q68 0 110 39.5t42 126.5v235q-55 18 -111 18q-53 0 -92 -18t-63.5 -49t-35.5 -73t-11 -89z" />
<glyph unicode="h" horiz-adv-x="1181" d="M100 0v1366h346v-492q29 35 66 57.5t76 35t74.5 16.5t62.5 4q76 0 141.5 -21.5t114.5 -67.5t76.5 -118.5t27.5 -173.5v-606h-346v516q0 78 -33.5 122t-99.5 44q-47 0 -77.5 -14.5t-49 -39t-26 -54t-7.5 -60.5v-514h-346z" />
<glyph unicode="i" horiz-adv-x="559" d="M92 1094v272h375v-272h-375zM106 0v963h347v-963h-347z" />
<glyph unicode="j" horiz-adv-x="585" d="M-260 -309l129 235q29 -16 59.5 -28.5t63.5 -12.5q90 0 115.5 47.5t25.5 126.5v904h346v-863q0 -111 -18.5 -204t-66.5 -161.5t-130 -106.5t-209 -38q-88 0 -172 26t-143 75zM119 1094v272h375v-272h-375z" />
<glyph unicode="k" horiz-adv-x="1134" d="M100 0v1366h346v-672l240 269h385l-328 -355l381 -608h-397l-213 369l-68 -72v-297h-346z" />
<glyph unicode="l" horiz-adv-x="546" d="M100 0v1366h346v-1366h-346z" />
<glyph unicode="m" horiz-adv-x="1792" d="M100 0v963h334l12 -107q55 70 130 100.5t149 30.5q68 0 116 -15.5t80.5 -37t51 -43t28.5 -33.5q23 25 60 48.5t79 42t88 28.5t87 10q186 0 283.5 -102.5t97.5 -278.5v-606h-346v514q0 78 -31 123t-100 45q-70 0 -114 -45t-44 -123v-514h-326v514q0 78 -29.5 123 t-101.5 45q-66 0 -112 -45t-46 -123v-514h-346z" />
<glyph unicode="n" horiz-adv-x="1173" d="M100 0v963h334l12 -101q29 35 66 59.5t76 39t74.5 20.5t62.5 6q76 0 140.5 -21.5t111.5 -67.5t73.5 -118.5t26.5 -173.5v-606h-346v524q0 72 -29.5 115t-95.5 43q-47 0 -77.5 -14.5t-49 -39t-26 -54t-7.5 -60.5v-514h-346z" />
<glyph unicode="o" horiz-adv-x="1146" d="M59 481q0 106 38 200.5t105.5 164t162 109.5t208.5 40q115 0 209.5 -40t162 -109.5t105 -163.5t37.5 -201q0 -109 -37.5 -202t-105 -162.5t-162 -109.5t-209.5 -40t-209 40t-161.5 109.5t-105.5 162.5t-38 202zM385 481q0 -92 51 -151.5t137 -59.5t137.5 59.5t51.5 151.5 t-51.5 151.5t-137.5 59.5t-137 -59.5t-51 -151.5z" />
<glyph unicode="p" horiz-adv-x="1165" d="M100 -410v1373h332l14 -101q27 39 61 62.5t67.5 36t63.5 16.5t50 4q100 0 179 -40t131.5 -106.5t80 -152.5t27.5 -180q0 -127 -39 -225.5t-108.5 -166t-163 -103.5t-199.5 -36q-45 0 -87 8.5t-65 14.5v-404h-344zM446 274q47 -20 121 -20q84 0 137.5 54t53.5 179 q0 33 -8.5 69t-26.5 64.5t-47 47t-68 18.5q-86 0 -124 -53t-38 -133v-226z" />
<glyph unicode="q" horiz-adv-x="1175" d="M59 473q0 109 38 202t111 161.5t179.5 107.5t243.5 39q104 0 209.5 -17.5t234.5 -64.5v-1311h-346v465q-37 -37 -95.5 -56t-129.5 -19q-98 0 -180 29.5t-140.5 90t-91.5 153.5t-33 220zM408 461q0 -86 42 -138.5t128 -52.5q76 0 113.5 45t37.5 127v232q-53 18 -113 18 q-92 0 -150 -57t-58 -174z" />
<glyph unicode="r" horiz-adv-x="827" d="M100 0v963h334l12 -121q41 57 101.5 97t146.5 40q41 0 71 -4t52 -12l-45 -295q-49 12 -100 12q-225 0 -226 -248v-432h-346z" />
<glyph unicode="s" horiz-adv-x="995" d="M31 100l147 219q25 -20 59.5 -37.5t72.5 -29.5t76 -19.5t67 -7.5q53 0 91 12.5t38 57.5q0 33 -44 52.5t-157 53.5q-63 18 -116.5 44t-92.5 61t-60.5 82t-21.5 108t30 115.5t84 95.5t131 64.5t169 23.5q119 0 214 -28.5t179 -83.5l-117 -215q-55 33 -115.5 57.5 t-125.5 24.5q-106 0 -107 -58q0 -25 19.5 -40t52.5 -26.5t76 -22.5t92 -28q74 -25 121 -55.5t74.5 -67t37.5 -80.5t10 -93q0 -88 -39.5 -147.5t-103 -96.5t-142.5 -52.5t-155 -15.5q-125 0 -247 34t-197 99z" />
<glyph unicode="t" horiz-adv-x="888" d="M20 696v267h142v268h346v-268h237v-267h-237v-340q0 -118 111 -118h2q33 0 64.5 14t57.5 33l136 -213q-66 -51 -146 -80t-164 -29q-117 0 -195.5 33t-125.5 91t-66.5 140t-19.5 179v290h-142z" />
<glyph unicode="u" horiz-adv-x="1169" d="M96 354v609h346v-527q0 -72 30 -114.5t106 -42.5q41 0 68.5 14t45 38.5t24.5 54.5t7 60v517h346v-963h-334l-12 98q-29 -35 -65.5 -59.5t-75.5 -38.5t-75 -20.5t-63 -6.5q-76 0 -139 21.5t-109 68t-73 118t-27 173.5z" />
<glyph unicode="v" horiz-adv-x="1153" d="M10 963h377l197 -576l182 576h377l-418 -963h-309z" />
<glyph unicode="w" horiz-adv-x="1617" d="M10 963h342l152 -566l170 566h268l172 -566l152 566h342l-334 -963h-299l-166 496l-166 -496h-299z" />
<glyph unicode="x" horiz-adv-x="1120" d="M10 963h400l151 -234l154 234h370l-337 -467l362 -496h-399l-162 242l-162 -242h-371l346 477z" />
<glyph unicode="y" horiz-adv-x="1173" d="M10 963h393l205 -557l195 557h360l-383 -949q-37 -90 -72.5 -171t-86 -142t-122 -98t-177.5 -37q-76 0 -148 21.5t-137 66.5l129 235q29 -20 65.5 -34.5t65.5 -14.5q47 0 78 17.5t53 76.5l29 78z" />
<glyph unicode="z" horiz-adv-x="1040" d="M70 0v213l452 475h-426v275h871v-220l-441 -477h447v-266h-903z" />
<glyph unicode="{" horiz-adv-x="649" d="M51 537v184q78 0 112 43t38 106l28 328q8 90 31 149.5t70 98.5h288q-37 -37 -65.5 -105.5t-36.5 -160.5l-29 -359q-4 -37 -21 -68.5t-43 -56t-55.5 -42t-58.5 -25.5q29 -8 58.5 -26.5t56.5 -47.5t45 -69t23 -91l28 -358q4 -59 33 -125t65 -102h-288q-47 39 -69.5 99 t-31.5 150l-28 328q-4 63 -38 106.5t-112 43.5z" />
<glyph unicode="|" horiz-adv-x="575" d="M133 -336v2042h309v-2042h-309z" />
<glyph unicode="}" horiz-adv-x="649" d="M31 -190q37 37 65.5 102t32.5 125l29 358q4 51 22.5 91t45 69t56 47.5t58.5 26.5q-29 8 -58.5 25.5t-55 42t-44 56t-20.5 68.5l-29 359q-8 92 -36.5 160.5t-65.5 105.5h288q47 -39 70 -98.5t31 -149.5l29 -328q4 -63 37.5 -106t111.5 -43v-184q-78 0 -111.5 -43 t-37.5 -107l-29 -328q-8 -90 -30.5 -150.5t-70.5 -98.5h-288z" />
<glyph unicode="~" horiz-adv-x="1038" d="M66 655q25 25 55.5 54.5t68 54t82.5 41t99 16.5q39 0 73.5 -13t65.5 -28.5t61.5 -28t63.5 -12.5q41 0 80 22.5t104 80.5l154 -254q-20 -31 -53 -61.5t-71 -54t-80 -39t-79 -15.5q-47 0 -86 13t-72.5 30.5t-64.5 31t-64 13.5q-47 0 -84.5 -25.5t-99.5 -79.5z" />
<glyph unicode="&#xa1;" horiz-adv-x="624" d="M123 -403l20 903h338l21 -903h-379zM137 614v349h350v-349h-350z" />
<glyph unicode="&#xa2;" d="M145 641q0 96 32 181t89.5 150.5t134 110.5t168.5 62v184h207v-186q98 -16 169 -56t120 -94l-203 -231q-23 27 -63.5 57.5t-122.5 30.5q-72 0 -127 -56.5t-55 -152.5t51 -153.5t131 -57.5q39 0 69.5 9.5t53 23.5t38 29.5l25.5 25.5l203 -231q-43 -47 -115.5 -90 t-173.5 -62v-174h-207v174q-92 14 -168.5 56t-134 108t-89.5 153t-32 189z" />
<glyph unicode="&#xa3;" d="M84 551v197h145v94q0 111 32 201t93.5 152t149.5 97t201 35q121 0 222 -42t179 -136l-203 -221q-29 33 -69.5 57.5t-85.5 24.5q-43 0 -73 -15.5t-49.5 -42t-27.5 -59.5t-8 -70v-75h330v-197h-330v-234h514v-317h-875v551h-145z" />
<glyph unicode="&#xa4;" horiz-adv-x="1116" d="M45 319l139 146q-47 84 -47 190q0 96 41 179l-133 139l186 190l138 -143q39 16 79.5 26.5t88.5 10.5q104 0 194 -51l150 157l188 -190l-160 -166q14 -35 22.5 -73t8.5 -79q0 -86 -35 -166l164 -170l-188 -186l-160 164q-84 -43 -184 -43q-86 0 -156 31l-150 -152z M395 655q0 -59 41.5 -101t100.5 -42t100 42t41 101q0 57 -41 98.5t-100 41.5t-100.5 -41t-41.5 -99z" />
<glyph unicode="&#xa5;" d="M0 1290h375l203 -506l206 506h365l-297 -585h158v-185h-250v-131h250v-184h-250v-205h-371v205h-252v184h252v131h-252v185h158z" />
<glyph unicode="&#xa6;" horiz-adv-x="575" d="M133 -336v776h309v-776h-309zM133 930v776h309v-776h-309z" />
<glyph unicode="&#xa7;" horiz-adv-x="999" d="M86 293l184 276l424 -272q104 -66 147.5 -153t43.5 -187q0 -84 -34 -155.5t-91.5 -124t-134 -82t-162.5 -29.5q-74 0 -134.5 17.5t-104.5 40t-70.5 43t-34.5 28.5l168 254q10 -6 28.5 -18.5t42 -26t49 -22.5t50.5 -9q39 0 61.5 20.5t22.5 49.5q0 23 -11.5 42t-44.5 42z M115 1012q0 84 33.5 155.5t91 123.5t134.5 82t163 30q74 0 134 -17.5t104 -40t70.5 -43t35.5 -28.5l-168 -254q-10 6 -29.5 18.5t-42.5 25.5t-48.5 22.5t-49.5 9.5q-39 0 -61.5 -20.5t-22.5 -49.5q0 -23 11 -42t44 -42l399 -266l-184 -277l-424 273q-104 66 -147 152.5 t-43 187.5z" />
<glyph unicode="&#xa8;" horiz-adv-x="901" d="M111 1128v246h268v-246h-268zM522 1128v246h269v-246h-269z" />
<glyph unicode="&#xa9;" horiz-adv-x="1644" d="M113 686q0 150 55 280t150.5 226t225.5 152.5t279 56.5q150 0 279 -56.5t224 -152.5t150.5 -226t55.5 -280t-55.5 -280t-151.5 -227t-225 -152.5t-279 -55.5t-278.5 55.5t-224 152.5t-150.5 227.5t-55 279.5zM295 686q0 -117 40 -216t110.5 -172t166.5 -115t209 -42 t209 42t167 115t111 172t40 216q0 115 -40 214t-111 173t-167 116t-207 42q-113 0 -209 -42t-166.5 -116t-111.5 -173t-41 -214zM436 692q0 80 29 151.5t81 125t124.5 84t158.5 30.5q106 0 188.5 -52t135.5 -126l-156 -121q-23 41 -63.5 72t-93.5 31q-86 0 -135.5 -55.5 t-49.5 -141.5q0 -82 50.5 -137t134.5 -55q59 0 99 32.5t58 67.5l156 -125q-53 -72 -135 -124t-189 -52q-88 0 -160.5 29.5t-123.5 83t-80 126t-29 156.5z" />
<glyph unicode="&#xaa;" horiz-adv-x="798" d="M72 840q0 63 29.5 105t75.5 67.5t101.5 36t108.5 10.5q41 0 82 -6v34q0 39 -36 54.5t-68 15.5q-49 0 -98.5 -13.5t-90.5 -41.5l-88 133q66 51 147.5 71.5t163.5 20.5q63 0 117.5 -15.5t94.5 -47t63.5 -80.5t23.5 -117v-408h-215l-6 56q-41 -41 -89 -59.5t-107 -18.5 q-92 0 -150.5 54t-58.5 149zM299 862q0 -35 22.5 -51t55.5 -16q43 0 67.5 25.5t24.5 68.5v43q-29 6 -57 6q-16 0 -37 -4t-37 -13.5t-27.5 -23.5t-11.5 -35z" />
<glyph unicode="&#xab;" horiz-adv-x="1267" d="M98 496l215 407h344l-213 -407l213 -412h-344zM602 496l215 407h344l-213 -407l213 -412h-344z" />
<glyph unicode="&#xac;" d="M166 512v270h817v-544h-278v274h-539z" />
<glyph unicode="&#xad;" horiz-adv-x="921" d="M123 408v331h676v-331h-676z" />
<glyph unicode="&#xae;" horiz-adv-x="1644" d="M113 686q0 150 55 280t150.5 226t225.5 152.5t279 56.5q150 0 279 -56.5t224 -152.5t150.5 -226t55.5 -280t-55.5 -280t-151.5 -227t-225 -152.5t-279 -55.5t-278.5 55.5t-224 152.5t-150.5 227.5t-55 279.5zM295 686q0 -117 40 -216t110.5 -172t166.5 -115t209 -42 t209 42t167 115t111 172t40 216q0 115 -40 214t-111 173t-167 116t-207 42q-113 0 -209 -42t-166.5 -116t-111.5 -173t-41 -214zM537 336v715h303q74 0 126 -21.5t83.5 -54.5t47 -72t15.5 -74q0 -57 -32.5 -112t-86.5 -88l170 -293h-219l-147 258h-64v-258h-196zM733 754 h101q47 0 63 17t16 46q0 31 -18 49.5t-61 18.5h-101v-131z" />
<glyph unicode="&#xaf;" horiz-adv-x="901" d="M158 1120v232h585v-232h-585z" />
<glyph unicode="&#xb0;" horiz-adv-x="780" d="M82 1063q0 66 24.5 122t65.5 96t97.5 62.5t119.5 22.5t120.5 -22.5t98.5 -62.5t65.5 -96.5t24.5 -121.5q0 -66 -24.5 -121t-65.5 -95t-98 -62.5t-121 -22.5q-63 0 -119.5 22.5t-97.5 62.5t-65.5 95t-24.5 121zM291 1063q0 -43 26.5 -74t71.5 -31q47 0 73.5 31t26.5 74 q0 45 -26.5 75.5t-73.5 30.5q-45 0 -71.5 -30.5t-26.5 -75.5z" />
<glyph unicode="&#xb1;" d="M166 0v270h268v242h-268v270h268v279h279v-279h270v-270h-270v-242h270v-270h-817z" />
<glyph unicode="&#xb2;" horiz-adv-x="737" d="M66 1225q74 49 141 73.5t149 24.5q59 0 112.5 -13.5t93.5 -40t63.5 -67.5t23.5 -96q0 -51 -16.5 -89t-44 -67.5t-62 -53.5t-71.5 -46q-25 -14 -44.5 -26.5t-41.5 -28.5h284v-193h-573v127q0 41 19.5 76t49 64.5t65.5 55t71 48.5q47 29 84 57.5t37 56.5q0 45 -64 46 q-70 0 -164 -60z" />
<glyph unicode="&#xb3;" horiz-adv-x="737" d="M29 672l112 168q43 -29 92.5 -46.5t96.5 -17.5q35 0 61.5 14.5t26.5 45.5q0 39 -30 50t-60 11q-23 0 -49.5 -3t-55.5 -11l-51 104l201 129h-264v189h520v-156l-148 -117q88 -14 131 -68.5t43 -138.5q0 -63 -27.5 -109t-73.5 -76t-104.5 -44t-117.5 -14q-78 0 -155 23.5 t-148 66.5z" />
<glyph unicode="&#xb4;" horiz-adv-x="901" d="M240 1106l98 291h326l-185 -291h-239z" />
<glyph unicode="&#xb5;" horiz-adv-x="1173" d="M100 -410v1373h346v-523q0 -78 32 -119.5t104 -41.5q41 0 68.5 14t45 38.5t24.5 54.5t7 60v517h346v-963h-334l-10 88q-27 -51 -77 -75.5t-107 -24.5q-53 0 -99 18v-416h-346z" />
<glyph unicode="&#xb6;" horiz-adv-x="1185" d="M51 983q0 111 41 184.5t110.5 117.5t159 62.5t185.5 18.5h86v-766h-86q-96 0 -186.5 17.5t-159 61.5t-109.5 117.5t-41 186.5zM319 -250v754q53 -16 114 -20.5t114 -4.5h86v-729h-314zM750 -250v1616h313v-1616h-313z" />
<glyph unicode="&#xb7;" horiz-adv-x="598" d="M113 463v371h372v-371h-372z" />
<glyph unicode="&#xb8;" horiz-adv-x="901" d="M201 -438l30 153q35 -12 72 -20t74 -8q14 0 33.5 1t37 7t29.5 17.5t12 29.5t-11 28.5t-27.5 14.5t-35 5t-30.5 1q-74 0 -139 -27l28 142q88 25 181 24q45 0 89 -10t78.5 -32.5t56 -58.5t21.5 -87q0 -57 -25.5 -98t-65.5 -68t-91 -39t-100 -12q-55 0 -109.5 8t-107.5 29z " />
<glyph unicode="&#xb9;" horiz-adv-x="737" d="M98 1182l250 123h219v-703h-243v471q-35 -16 -69 -34.5t-69 -32.5z" />
<glyph unicode="&#xba;" horiz-adv-x="866" d="M86 983q0 72 24.5 135.5t70.5 109.5t110.5 72.5t142.5 26.5t141.5 -26.5t109.5 -72.5t70.5 -109.5t24.5 -135.5t-24.5 -135.5t-70.5 -109.5t-109.5 -72.5t-141.5 -26.5t-142.5 26.5t-110.5 72.5t-70.5 109.5t-24.5 135.5zM313 983q0 -59 33 -97t88 -38t87 38t32 97 t-32 97t-87 38t-88 -38t-33 -97z" />
<glyph unicode="&#xbb;" horiz-adv-x="1267" d="M100 84l213 412l-213 407h345l215 -407l-215 -412h-345zM602 84l213 412l-213 407h345l215 -407l-215 -412h-345z" />
<glyph unicode="&#xbc;" horiz-adv-x="1792" d="M41 1182l250 123h219v-703h-243v471q-35 -16 -69 -34.5t-69 -32.5zM314 0l815 1290h293l-807 -1290h-301zM1049 119v176l305 408h258v-408h74v-176h-74v-119h-225v119h-338zM1244 295h143v186z" />
<glyph unicode="&#xbd;" horiz-adv-x="1894" d="M65 1182l250 123h219v-703h-243v471q-35 -16 -69 -34.5t-69 -32.5zM328 0l815 1290h293l-807 -1290h-301zM1168 625q74 49 141 73.5t149 24.5q59 0 112.5 -13.5t93.5 -40t63.5 -67.5t23.5 -96q0 -51 -16.5 -89t-44 -67.5t-62 -53.5t-71.5 -46q-25 -14 -44.5 -26.5 t-41.5 -28.5h284v-193h-573v127q0 41 19.5 76t49 64.5t65.5 55t71 48.5q47 29 84 57.5t37 56.5q0 45 -64 46q-70 0 -164 -60z" />
<glyph unicode="&#xbe;" horiz-adv-x="1894" d="M117 672l112 168q43 -29 92.5 -46.5t96.5 -17.5q35 0 61.5 14.5t26.5 45.5q0 39 -30 50t-60 11q-23 0 -49.5 -3t-55.5 -11l-51 104l201 129h-264v189h520v-156l-148 -117q88 -14 131 -68.5t43 -138.5q0 -63 -27.5 -109t-73.5 -76t-104.5 -44t-117.5 -14q-78 0 -155 23.5 t-148 66.5zM424 0l815 1290h293l-807 -1290h-301zM1139 121v176l305 408h258v-408h74v-176h-74v-119h-225v119h-338zM1334 297h143v186z" />
<glyph unicode="&#xbf;" horiz-adv-x="1107" d="M119 -39q0 59 13 105.5t35.5 81t50.5 62.5t56 50q31 27 63 50.5t56.5 49t40 58.5t15.5 76v8h317v-10q0 -72 -13.5 -124.5t-36 -92t-50 -67.5t-56.5 -50q-27 -20 -52.5 -39t-44.5 -38.5t-31.5 -41t-12.5 -49.5q0 -33 15.5 -54.5t38 -34t51 -17.5t53.5 -5q72 0 139.5 35 t120.5 88l200 -238q-92 -94 -215.5 -150t-283.5 -56q-92 0 -176 22.5t-149.5 71.5t-104.5 125t-39 184zM434 614v349h350v-349h-350z" />
<glyph unicode="&#xc0;" horiz-adv-x="1441" d="M20 0l502 1366h416l483 -1366h-391l-88 283h-457l-90 -283h-375zM359 1788h366l150 -320h-263zM559 547h309l-151 502z" />
<glyph unicode="&#xc1;" horiz-adv-x="1441" d="M20 0l502 1366h416l483 -1366h-391l-88 283h-457l-90 -283h-375zM559 547h309l-151 502zM578 1468l149 320h367l-254 -320h-262z" />
<glyph unicode="&#xc2;" horiz-adv-x="1441" d="M20 0l502 1366h416l483 -1366h-391l-88 283h-457l-90 -283h-375zM352 1468l237 320h263l237 -320h-276l-92 140l-95 -140h-274zM559 547h309l-151 502z" />
<glyph unicode="&#xc3;" horiz-adv-x="1441" d="M20 0l502 1366h416l483 -1366h-391l-88 283h-457l-90 -283h-375zM288 1657q51 55 120 92t147 37q39 0 73.5 -13.5t69.5 -31t69.5 -30.5t73.5 -13q53 0 101.5 21.5t91.5 56.5l119 -185q-51 -55 -120 -92t-147 -37q-39 0 -73.5 13.5t-68.5 31t-68.5 30.5t-73.5 13 q-55 0 -103.5 -21.5t-89.5 -55.5zM559 547h309l-151 502z" />
<glyph unicode="&#xc4;" horiz-adv-x="1441" d="M20 0l502 1366h416l483 -1366h-391l-88 283h-457l-90 -283h-375zM346 1497v262h289v-262h-289zM559 547h309l-151 502zM807 1497v262h288v-262h-288z" />
<glyph unicode="&#xc5;" horiz-adv-x="1441" d="M20 0l502 1366h2q-41 37 -64.5 89.5t-23.5 115.5q0 59 23.5 110.5t63.5 89t92.5 59t111.5 21.5t111.5 -21.5t92.5 -59t63.5 -90t23.5 -111.5q0 -61 -24.5 -113.5t-65.5 -89.5h10l483 -1366h-391l-88 283h-457l-90 -283h-375zM559 547h309l-151 502zM641 1571 q0 -37 24.5 -63.5t61.5 -26.5t61.5 26.5t24.5 61.5q0 37 -24.5 63.5t-61.5 26.5t-61.5 -25.5t-24.5 -62.5z" />
<glyph unicode="&#xc6;" horiz-adv-x="1976" d="M0 0l752 1366h1116v-317h-563v-205h454v-299h-454v-226h606v-319h-946v309h-416l-154 -309h-395zM690 594h275v465h-39z" />
<glyph unicode="&#xc7;" horiz-adv-x="1398" d="M70 680q0 156 51 288t145 229t225.5 151.5t288.5 54.5q178 0 330 -59.5t256 -206.5l-240 -242q-57 78 -137 125t-182 47q-86 0 -153.5 -28.5t-113.5 -80t-71 -120t-25 -148.5q0 -82 26 -151.5t73 -120.5t113.5 -80t148.5 -29q119 0 193.5 42t146.5 132l244 -229 q-231 -289 -609 -289q-158 0 -289 53.5t-224 147.5t-145 225t-52 289zM527 -442l30 153q74 -25 148 -24q14 0 33.5 1t36 5t28.5 14t12 29q0 16 -11 24.5t-26.5 12.5t-34 5t-30.5 1q-35 0 -70.5 -4t-70.5 -17l28 142q45 12 90.5 16t92.5 4q45 0 89 -9t78.5 -30.5t57 -57.5 t22.5 -87q0 -57 -25.5 -97t-66.5 -66t-91 -37t-101 -11q-55 0 -110.5 6t-108.5 27z" />
<glyph unicode="&#xc8;" horiz-adv-x="1214" d="M123 0v1366h983v-313h-621v-211h510v-295h-510v-234h664v-313h-1026zM304 1788h366l150 -320h-263z" />
<glyph unicode="&#xc9;" horiz-adv-x="1214" d="M123 0v1366h983v-313h-621v-211h510v-295h-510v-234h664v-313h-1026zM488 1468l149 320h367l-254 -320h-262z" />
<glyph unicode="&#xca;" horiz-adv-x="1214" d="M123 0v1366h983v-313h-621v-211h510v-295h-510v-234h664v-313h-1026zM260 1468l237 320h263l237 -320h-276l-92 140l-95 -140h-274z" />
<glyph unicode="&#xcb;" horiz-adv-x="1214" d="M123 0v1366h983v-313h-621v-211h510v-295h-510v-234h664v-313h-1026zM248 1497v262h289v-262h-289zM709 1497v262h288v-262h-288z" />
<glyph unicode="&#xcc;" horiz-adv-x="608" d="M-49 1788h366l150 -320h-263zM123 0v1366h362v-1366h-362z" />
<glyph unicode="&#xcd;" horiz-adv-x="608" d="M123 0v1366h362v-1366h-362zM152 1468l149 320h367l-254 -320h-262z" />
<glyph unicode="&#xce;" horiz-adv-x="608" d="M-61 1468l237 320h263l237 -320h-276l-92 140l-95 -140h-274zM123 0v1366h362v-1366h-362z" />
<glyph unicode="&#xcf;" horiz-adv-x="608" d="M-67 1497v262h289v-262h-289zM123 0v1366h362v-1366h-362zM394 1497v262h288v-262h-288z" />
<glyph unicode="&#xd0;" horiz-adv-x="1449" d="M0 592v184h123v590h524q158 0 292 -41t232.5 -125t153.5 -215t55 -309q0 -170 -56 -296t-154.5 -211t-233.5 -127t-291 -42h-522v592h-123zM485 319h148q178 0 275.5 101.5t97.5 263.5q0 82 -22.5 148.5t-69 114.5t-116 75t-165.5 27h-148v-273h222v-184h-222v-273z" />
<glyph unicode="&#xd1;" horiz-adv-x="1458" d="M123 0v1366h330l524 -762v762h358v-1366h-309l-545 784v-784h-358zM309 1657q51 55 120 92t147 37q39 0 73.5 -13.5t69.5 -31t69.5 -30.5t73.5 -13q53 0 101.5 21.5t91.5 56.5l119 -185q-51 -55 -120 -92t-147 -37q-39 0 -73.5 13.5t-68.5 31t-68.5 30.5t-73.5 13 q-55 0 -103.5 -21.5t-89.5 -55.5z" />
<glyph unicode="&#xd2;" horiz-adv-x="1560" d="M70 686q0 156 53 288t148.5 227t225.5 148.5t283 53.5q154 0 285 -53.5t225 -148.5t147.5 -227t53.5 -288t-53.5 -288t-147.5 -227t-225 -149.5t-285 -54.5t-283.5 54.5t-225 149.5t-148.5 227t-53 288zM420 1788h366l150 -320h-263zM444 686q0 -78 22.5 -147.5 t65.5 -120.5t105.5 -81t142.5 -30t142.5 30t105.5 81t65.5 120.5t22.5 147.5t-22.5 147.5t-65.5 121t-105.5 81t-142.5 29.5t-142.5 -29.5t-105.5 -81t-65.5 -121t-22.5 -147.5z" />
<glyph unicode="&#xd3;" horiz-adv-x="1560" d="M70 686q0 156 53 288t148.5 227t225.5 148.5t283 53.5q154 0 285 -53.5t225 -148.5t147.5 -227t53.5 -288t-53.5 -288t-147.5 -227t-225 -149.5t-285 -54.5t-283.5 54.5t-225 149.5t-148.5 227t-53 288zM444 686q0 -78 22.5 -147.5t65.5 -120.5t105.5 -81t142.5 -30 t142.5 30t105.5 81t65.5 120.5t22.5 147.5t-22.5 147.5t-65.5 121t-105.5 81t-142.5 29.5t-142.5 -29.5t-105.5 -81t-65.5 -121t-22.5 -147.5zM603 1468l149 320h367l-254 -320h-262z" />
<glyph unicode="&#xd4;" horiz-adv-x="1560" d="M70 686q0 156 53 288t148.5 227t225.5 148.5t283 53.5q154 0 285 -53.5t225 -148.5t147.5 -227t53.5 -288t-53.5 -288t-147.5 -227t-225 -149.5t-285 -54.5t-283.5 54.5t-225 149.5t-148.5 227t-53 288zM412 1468l237 320h263l237 -320h-276l-92 140l-95 -140h-274z M444 686q0 -78 22.5 -147.5t65.5 -120.5t105.5 -81t142.5 -30t142.5 30t105.5 81t65.5 120.5t22.5 147.5t-22.5 147.5t-65.5 121t-105.5 81t-142.5 29.5t-142.5 -29.5t-105.5 -81t-65.5 -121t-22.5 -147.5z" />
<glyph unicode="&#xd5;" horiz-adv-x="1560" d="M70 686q0 156 53 288t148.5 227t225.5 148.5t283 53.5q154 0 285 -53.5t225 -148.5t147.5 -227t53.5 -288t-53.5 -288t-147.5 -227t-225 -149.5t-285 -54.5t-283.5 54.5t-225 149.5t-148.5 227t-53 288zM348 1657q51 55 120 92t147 37q39 0 73.5 -13.5t69.5 -31 t69.5 -30.5t73.5 -13q53 0 101.5 21.5t91.5 56.5l119 -185q-51 -55 -120 -92t-147 -37q-39 0 -73.5 13.5t-68.5 31t-68.5 30.5t-73.5 13q-55 0 -103.5 -21.5t-89.5 -55.5zM444 686q0 -78 22.5 -147.5t65.5 -120.5t105.5 -81t142.5 -30t142.5 30t105.5 81t65.5 120.5 t22.5 147.5t-22.5 147.5t-65.5 121t-105.5 81t-142.5 29.5t-142.5 -29.5t-105.5 -81t-65.5 -121t-22.5 -147.5z" />
<glyph unicode="&#xd6;" horiz-adv-x="1560" d="M70 686q0 156 53 288t148.5 227t225.5 148.5t283 53.5q154 0 285 -53.5t225 -148.5t147.5 -227t53.5 -288t-53.5 -288t-147.5 -227t-225 -149.5t-285 -54.5t-283.5 54.5t-225 149.5t-148.5 227t-53 288zM406 1497v262h289v-262h-289zM444 686q0 -78 22.5 -147.5 t65.5 -120.5t105.5 -81t142.5 -30t142.5 30t105.5 81t65.5 120.5t22.5 147.5t-22.5 147.5t-65.5 121t-105.5 81t-142.5 29.5t-142.5 -29.5t-105.5 -81t-65.5 -121t-22.5 -147.5zM867 1497v262h288v-262h-288z" />
<glyph unicode="&#xd7;" d="M137 399l246 246l-246 246l191 192l245 -247l248 247l191 -192l-246 -246l246 -246l-191 -192l-248 246l-245 -246z" />
<glyph unicode="&#xd8;" horiz-adv-x="1560" d="M70 678q0 156 53 288t148.5 227t225.5 148.5t283 53.5q94 0 180.5 -20.5t159.5 -59.5l117 170l162 -107l-121 -174q100 -98 156.5 -232t56.5 -294q0 -156 -53.5 -288t-147.5 -227t-225 -149.5t-285 -54.5q-86 0 -164.5 17.5t-148.5 48.5l-105 -152l-161 104l104 152 q-111 98 -173 237.5t-62 311.5zM444 678q0 -145 70 -246l408 594q-61 31 -142 31q-80 0 -142.5 -30t-105.5 -81t-65.5 -120.5t-22.5 -147.5zM668 317q49 -18 112 -18q80 0 142.5 29.5t105.5 81t65.5 121t22.5 147.5q0 119 -51 215z" />
<glyph unicode="&#xd9;" horiz-adv-x="1406" d="M115 532v834h362v-801q0 -113 52.5 -184.5t172.5 -71.5q121 0 172.5 73t51.5 183v801h366v-834q0 -131 -43 -236.5t-121.5 -179t-186 -112.5t-236.5 -39t-238 39t-187.5 111.5t-121.5 178t-43 238.5zM373 1788h366l150 -320h-263z" />
<glyph unicode="&#xda;" horiz-adv-x="1406" d="M115 532v834h362v-801q0 -113 52.5 -184.5t172.5 -71.5q121 0 172.5 73t51.5 183v801h366v-834q0 -131 -43 -236.5t-121.5 -179t-186 -112.5t-236.5 -39t-238 39t-187.5 111.5t-121.5 178t-43 238.5zM533 1468l149 320h367l-254 -320h-262z" />
<glyph unicode="&#xdb;" horiz-adv-x="1406" d="M115 532v834h362v-801q0 -113 52.5 -184.5t172.5 -71.5q121 0 172.5 73t51.5 183v801h366v-834q0 -131 -43 -236.5t-121.5 -179t-186 -112.5t-236.5 -39t-238 39t-187.5 111.5t-121.5 178t-43 238.5zM334 1468l237 320h263l237 -320h-276l-92 140l-95 -140h-274z" />
<glyph unicode="&#xdc;" horiz-adv-x="1406" d="M115 532v834h362v-801q0 -113 52.5 -184.5t172.5 -71.5q121 0 172.5 73t51.5 183v801h366v-834q0 -131 -43 -236.5t-121.5 -179t-186 -112.5t-236.5 -39t-238 39t-187.5 111.5t-121.5 178t-43 238.5zM328 1497v262h289v-262h-289zM789 1497v262h288v-262h-288z" />
<glyph unicode="&#xdd;" horiz-adv-x="1376" d="M20 1366h416l266 -487l250 487h404l-488 -819v-547h-362v545zM570 1468l149 320h367l-254 -320h-262z" />
<glyph unicode="&#xde;" horiz-adv-x="1224" d="M125 0v1366h354v-211h203q111 0 200 -29.5t152.5 -86t98 -141.5t34.5 -196q0 -106 -35.5 -191t-98 -145.5t-149.5 -92t-192 -31.5h-213v-242h-354zM479 528h172q74 0 117 46.5t43 121.5q0 78 -41 125t-121 47h-170v-340z" />
<glyph unicode="&#xdf;" horiz-adv-x="1296" d="M92 0v944q0 119 39 206t109.5 143.5t167 83t210.5 26.5q86 0 168 -19.5t145.5 -60.5t102.5 -107.5t39 -160.5q0 -74 -24.5 -128.5t-54 -95t-54.5 -70.5t-25 -52q0 -35 31 -52.5t76 -35.5q43 -18 84 -41t74.5 -59t54 -89t20.5 -133q0 -82 -34.5 -144.5t-92 -103.5 t-128 -62.5t-144.5 -21.5q-90 0 -184 18.5t-168 71.5l153 230q35 -27 76 -43.5t84 -16.5q39 0 74 17.5t35 60.5q0 25 -14.5 42.5t-38 31.5t-54.5 25.5t-63 25.5q-33 14 -65 32.5t-56.5 46.5t-39.5 66.5t-15 92.5q0 61 26.5 110t58 91t58.5 80t27 77q0 59 -42 86t-96 27 q-92 0 -133 -61.5t-41 -145.5v-932h-346z" />
<glyph unicode="&#xe0;" horiz-adv-x="1079" d="M47 258q0 86 37 152.5t100.5 110.5t147.5 66.5t176 22.5q47 0 74.5 -2t62.5 -6v19q0 37 -15.5 60.5t-39 36.5t-51 18t-54.5 5q-92 0 -161.5 -23.5t-112.5 -53.5l-131 198q61 49 171.5 90t283.5 41q100 0 182 -25.5t141.5 -77.5t92 -129t32.5 -179v-582h-326l-12 90 q-66 -70 -132.5 -96.5t-164.5 -26.5q-47 0 -100 13.5t-98.5 46t-74 89t-28.5 142.5zM271 1397h325l99 -291h-240zM383 309q0 -106 115 -106q27 0 53.5 7t46.5 24.5t33.5 46t13.5 71.5v64q-35 8 -94 8q-86 0 -127 -34t-41 -81z" />
<glyph unicode="&#xe1;" horiz-adv-x="1079" d="M47 258q0 86 37 152.5t100.5 110.5t147.5 66.5t176 22.5q47 0 74.5 -2t62.5 -6v19q0 37 -15.5 60.5t-39 36.5t-51 18t-54.5 5q-92 0 -161.5 -23.5t-112.5 -53.5l-131 198q61 49 171.5 90t283.5 41q100 0 182 -25.5t141.5 -77.5t92 -129t32.5 -179v-582h-326l-12 90 q-66 -70 -132.5 -96.5t-164.5 -26.5q-47 0 -100 13.5t-98.5 46t-74 89t-28.5 142.5zM381 1106l98 291h326l-185 -291h-239zM383 309q0 -106 115 -106q27 0 53.5 7t46.5 24.5t33.5 46t13.5 71.5v64q-35 8 -94 8q-86 0 -127 -34t-41 -81z" />
<glyph unicode="&#xe2;" horiz-adv-x="1079" d="M47 258q0 86 37 152.5t100.5 110.5t147.5 66.5t176 22.5q47 0 74.5 -2t62.5 -6v19q0 37 -15.5 60.5t-39 36.5t-51 18t-54.5 5q-92 0 -161.5 -23.5t-112.5 -53.5l-131 198q61 49 171.5 90t283.5 41q100 0 182 -25.5t141.5 -77.5t92 -129t32.5 -179v-582h-326l-12 90 q-66 -70 -132.5 -96.5t-164.5 -26.5q-47 0 -100 13.5t-98.5 46t-74 89t-28.5 142.5zM186 1106l221 291h271l219 -291h-272l-84 117l-80 -117h-275zM383 309q0 -106 115 -106q27 0 53.5 7t46.5 24.5t33.5 46t13.5 71.5v64q-35 8 -94 8q-86 0 -127 -34t-41 -81z" />
<glyph unicode="&#xe3;" horiz-adv-x="1079" d="M47 258q0 86 37 152.5t100.5 110.5t147.5 66.5t176 22.5q47 0 74.5 -2t62.5 -6v19q0 37 -15.5 60.5t-39 36.5t-51 18t-54.5 5q-92 0 -161.5 -23.5t-112.5 -53.5l-131 198q61 49 171.5 90t283.5 41q100 0 182 -25.5t141.5 -77.5t92 -129t32.5 -179v-582h-326l-12 90 q-66 -70 -132.5 -96.5t-164.5 -26.5q-47 0 -100 13.5t-98.5 46t-74 89t-28.5 142.5zM113 1280q51 55 117.5 91t142.5 36q39 0 72.5 -13.5t67.5 -29.5t68.5 -29.5t71.5 -13.5q53 0 100.5 21.5t88.5 54.5l116 -180q-49 -53 -116.5 -89t-143.5 -36q-37 0 -71.5 13t-68.5 28.5 t-67.5 29t-72.5 13.5q-53 0 -100.5 -21.5t-88.5 -54.5zM383 309q0 -106 115 -106q27 0 53.5 7t46.5 24.5t33.5 46t13.5 71.5v64q-35 8 -94 8q-86 0 -127 -34t-41 -81z" />
<glyph unicode="&#xe4;" horiz-adv-x="1079" d="M47 258q0 86 37 152.5t100.5 110.5t147.5 66.5t176 22.5q47 0 74.5 -2t62.5 -6v19q0 37 -15.5 60.5t-39 36.5t-51 18t-54.5 5q-92 0 -161.5 -23.5t-112.5 -53.5l-131 198q61 49 171.5 90t283.5 41q100 0 182 -25.5t141.5 -77.5t92 -129t32.5 -179v-582h-326l-12 90 q-66 -70 -132.5 -96.5t-164.5 -26.5q-47 0 -100 13.5t-98.5 46t-74 89t-28.5 142.5zM195 1128v246h268v-246h-268zM383 309q0 -106 115 -106q27 0 53.5 7t46.5 24.5t33.5 46t13.5 71.5v64q-35 8 -94 8q-86 0 -127 -34t-41 -81zM606 1128v246h269v-246h-269z" />
<glyph unicode="&#xe5;" horiz-adv-x="1079" d="M47 258q0 86 37 152.5t100.5 110.5t147.5 66.5t176 22.5q47 0 74.5 -2t62.5 -6v19q0 37 -15.5 60.5t-39 36.5t-51 18t-54.5 5q-92 0 -161.5 -23.5t-112.5 -53.5l-131 198q61 49 171.5 90t283.5 41q100 0 182 -25.5t141.5 -77.5t92 -129t32.5 -179v-582h-326l-12 90 q-66 -70 -132.5 -96.5t-164.5 -26.5q-47 0 -100 13.5t-98.5 46t-74 89t-28.5 142.5zM283 1323q0 53 20.5 98t54 77t79.5 50.5t98 18.5q51 0 97 -18.5t80 -50.5t54 -77t20 -98t-20 -97t-54 -77t-80 -51.5t-97 -18.5t-97.5 18.5t-80 51.5t-54 77t-20.5 97zM383 309 q0 -106 115 -106q27 0 53.5 7t46.5 24.5t33.5 46t13.5 71.5v64q-35 8 -94 8q-86 0 -127 -34t-41 -81zM457 1323q0 -33 22.5 -55.5t55.5 -22.5t55 22.5t22 55.5t-22.5 56.5t-54.5 23.5q-33 0 -55.5 -22.5t-22.5 -57.5z" />
<glyph unicode="&#xe6;" horiz-adv-x="1665" d="M47 266q0 86 37 150.5t100.5 107.5t147.5 64.5t176 21.5q47 0 74.5 -2t62.5 -6v19q0 37 -15.5 60.5t-39 36.5t-51 18t-54.5 5q-92 0 -161.5 -23.5t-112.5 -53.5l-131 198q66 51 173 91t269 40q104 0 179 -28.5t126 -79.5q57 53 134 81.5t194 28.5q98 0 182 -33.5 t144.5 -102t95.5 -172t35 -243.5v-65h-651q2 -25 13 -51.5t38.5 -50t74 -38t113.5 -14.5q88 0 161 22.5t114 47.5l108 -225q-25 -14 -62.5 -32t-89 -33t-115 -26.5t-134.5 -11.5q-135 0 -229.5 35t-155.5 102q-86 -76 -177.5 -106.5t-201.5 -30.5q-70 0 -136.5 14.5 t-118.5 48t-84 92t-32 144.5zM383 309q0 -106 115 -106q27 0 53.5 7t46.5 24.5t33.5 46t13.5 71.5v64q-35 8 -94 8q-86 0 -127 -34t-41 -81zM963 584h342q0 55 -41 104t-129 49q-43 0 -76 -15t-54.5 -37.5t-31.5 -49.5t-10 -51z" />
<glyph unicode="&#xe7;" horiz-adv-x="989" d="M59 483q0 109 40 202t111 163t166 108.5t204 38.5q143 0 240.5 -45t158.5 -114l-203 -232q-23 27 -63.5 57.5t-122.5 30.5q-72 0 -127 -56t-55 -153q0 -47 15 -87t39.5 -67.5t57.5 -43t70 -15.5q39 0 69.5 9.5t53 23.5t38 29.5l25.5 25.5l203 -231q-27 -31 -66 -59.5 t-89 -51t-111.5 -36t-132.5 -13.5q-109 0 -204 37t-166 104.5t-111 163t-40 211.5zM344 -438l30 153q35 -12 72 -20t74 -8q14 0 33.5 1t37 7t29.5 17.5t12 29.5t-11 28.5t-27.5 14.5t-35 5t-30.5 1q-74 0 -139 -27l28 142q88 25 181 24q45 0 89 -10t78.5 -32.5t56 -58.5 t21.5 -87q0 -57 -25.5 -98t-65.5 -68t-91 -39t-100 -12q-55 0 -109.5 8t-107.5 29z" />
<glyph unicode="&#xe8;" horiz-adv-x="1091" d="M59 477q0 96 31 189.5t93.5 166t157.5 117.5t222 45q98 0 185.5 -33.5t152 -102t101 -172t36.5 -243.5v-65h-651q2 -25 13.5 -51.5t39 -50t73.5 -38t114 -14.5q88 0 160.5 22.5t113.5 47.5l109 -225q-25 -14 -63 -32t-89 -33t-114.5 -26.5t-135.5 -11.5 q-266 0 -407.5 134.5t-141.5 375.5zM285 1397h325l99 -291h-240zM389 584h342q0 25 -10 51.5t-31.5 49t-53.5 37.5t-77 15q-43 0 -75.5 -15t-53 -37.5t-31 -49.5t-10.5 -51z" />
<glyph unicode="&#xe9;" horiz-adv-x="1091" d="M59 477q0 96 31 189.5t93.5 166t157.5 117.5t222 45q98 0 185.5 -33.5t152 -102t101 -172t36.5 -243.5v-65h-651q2 -25 13.5 -51.5t39 -50t73.5 -38t114 -14.5q88 0 160.5 22.5t113.5 47.5l109 -225q-25 -14 -63 -32t-89 -33t-114.5 -26.5t-135.5 -11.5 q-266 0 -407.5 134.5t-141.5 375.5zM389 584h342q0 25 -10 51.5t-31.5 49t-53.5 37.5t-77 15q-43 0 -75.5 -15t-53 -37.5t-31 -49.5t-10.5 -51zM428 1106l98 291h326l-185 -291h-239z" />
<glyph unicode="&#xea;" horiz-adv-x="1091" d="M59 477q0 96 31 189.5t93.5 166t157.5 117.5t222 45q98 0 185.5 -33.5t152 -102t101 -172t36.5 -243.5v-65h-651q2 -25 13.5 -51.5t39 -50t73.5 -38t114 -14.5q88 0 160.5 22.5t113.5 47.5l109 -225q-25 -14 -63 -32t-89 -33t-114.5 -26.5t-135.5 -11.5 q-266 0 -407.5 134.5t-141.5 375.5zM194 1106l221 291h271l219 -291h-272l-84 117l-80 -117h-275zM389 584h342q0 25 -10 51.5t-31.5 49t-53.5 37.5t-77 15q-43 0 -75.5 -15t-53 -37.5t-31 -49.5t-10.5 -51z" />
<glyph unicode="&#xeb;" horiz-adv-x="1091" d="M59 477q0 96 31 189.5t93.5 166t157.5 117.5t222 45q98 0 185.5 -33.5t152 -102t101 -172t36.5 -243.5v-65h-651q2 -25 13.5 -51.5t39 -50t73.5 -38t114 -14.5q88 0 160.5 22.5t113.5 47.5l109 -225q-25 -14 -63 -32t-89 -33t-114.5 -26.5t-135.5 -11.5 q-266 0 -407.5 134.5t-141.5 375.5zM209 1128v246h268v-246h-268zM389 584h342q0 25 -10 51.5t-31.5 49t-53.5 37.5t-77 15q-43 0 -75.5 -15t-53 -37.5t-31 -49.5t-10.5 -51zM620 1128v246h269v-246h-269z" />
<glyph unicode="&#xec;" horiz-adv-x="559" d="M-10 1397h325l99 -291h-240zM106 0v963h347v-963h-347z" />
<glyph unicode="&#xed;" horiz-adv-x="559" d="M106 0v963h347v-963h-347zM148 1106l98 291h326l-185 -291h-239z" />
<glyph unicode="&#xee;" horiz-adv-x="559" d="M-74 1106l221 291h271l219 -291h-272l-84 117l-80 -117h-275zM106 0v963h347v-963h-347z" />
<glyph unicode="&#xef;" horiz-adv-x="559" d="M-59 1128v246h268v-246h-268zM106 0v963h347v-963h-347zM352 1128v246h269v-246h-269z" />
<glyph unicode="&#xf0;" horiz-adv-x="1153" d="M59 449q0 104 39 188t104.5 144.5t151.5 93t183 32.5q37 0 84 -7t84 -17q-23 47 -69 104t-138 107l-95 -142l-137 97l72 106q-33 8 -67.5 14.5t-75.5 12.5l45 221q66 -4 126 -13.5t115 -21.5l78 115l137 -97l-51 -75q131 -59 217 -144.5t137.5 -182.5t73 -201.5 t21.5 -198.5q0 -145 -38 -260t-108.5 -194t-171 -121t-225.5 -42q-104 0 -194.5 35t-157 98.5t-103.5 152.5t-37 196zM387 457q0 -37 13.5 -71t36 -59.5t55 -41t71.5 -15.5q51 0 89 18.5t61.5 50.5t35 74t11.5 91q0 57 -6 106q-72 43 -160 43q-82 0 -144.5 -47t-62.5 -149z " />
<glyph unicode="&#xf1;" horiz-adv-x="1173" d="M100 0v963h334l12 -101q29 35 66 59.5t76 39t74.5 20.5t62.5 6q76 0 140.5 -21.5t111.5 -67.5t73.5 -118.5t26.5 -173.5v-606h-346v524q0 72 -29.5 115t-95.5 43q-47 0 -77.5 -14.5t-49 -39t-26 -54t-7.5 -60.5v-514h-346zM144 1280q51 55 117.5 91t142.5 36 q39 0 72.5 -13.5t67.5 -29.5t68.5 -29.5t71.5 -13.5q53 0 100.5 21.5t88.5 54.5l116 -180q-49 -53 -116.5 -89t-143.5 -36q-37 0 -71.5 13t-68.5 28.5t-67.5 29t-72.5 13.5q-53 0 -100.5 -21.5t-88.5 -54.5z" />
<glyph unicode="&#xf2;" horiz-adv-x="1146" d="M59 481q0 106 38 200.5t105.5 164t162 109.5t208.5 40q115 0 209.5 -40t162 -109.5t105 -163.5t37.5 -201q0 -109 -37.5 -202t-105 -162.5t-162 -109.5t-209.5 -40t-209 40t-161.5 109.5t-105.5 162.5t-38 202zM295 1397h325l99 -291h-240zM385 481q0 -92 51 -151.5 t137 -59.5t137.5 59.5t51.5 151.5t-51.5 151.5t-137.5 59.5t-137 -59.5t-51 -151.5z" />
<glyph unicode="&#xf3;" horiz-adv-x="1146" d="M59 481q0 106 38 200.5t105.5 164t162 109.5t208.5 40q115 0 209.5 -40t162 -109.5t105 -163.5t37.5 -201q0 -109 -37.5 -202t-105 -162.5t-162 -109.5t-209.5 -40t-209 40t-161.5 109.5t-105.5 162.5t-38 202zM385 481q0 -92 51 -151.5t137 -59.5t137.5 59.5t51.5 151.5 t-51.5 151.5t-137.5 59.5t-137 -59.5t-51 -151.5zM418 1106l98 291h326l-185 -291h-239z" />
<glyph unicode="&#xf4;" horiz-adv-x="1146" d="M59 481q0 106 38 200.5t105.5 164t162 109.5t208.5 40q115 0 209.5 -40t162 -109.5t105 -163.5t37.5 -201q0 -109 -37.5 -202t-105 -162.5t-162 -109.5t-209.5 -40t-209 40t-161.5 109.5t-105.5 162.5t-38 202zM219 1106l221 291h271l219 -291h-272l-84 117l-80 -117 h-275zM385 481q0 -92 51 -151.5t137 -59.5t137.5 59.5t51.5 151.5t-51.5 151.5t-137.5 59.5t-137 -59.5t-51 -151.5z" />
<glyph unicode="&#xf5;" horiz-adv-x="1146" d="M59 481q0 106 38 200.5t105.5 164t162 109.5t208.5 40q115 0 209.5 -40t162 -109.5t105 -163.5t37.5 -201q0 -109 -37.5 -202t-105 -162.5t-162 -109.5t-209.5 -40t-209 40t-161.5 109.5t-105.5 162.5t-38 202zM152 1280q51 55 117.5 91t142.5 36q39 0 72.5 -13.5 t67.5 -29.5t68.5 -29.5t71.5 -13.5q53 0 100.5 21.5t88.5 54.5l116 -180q-49 -53 -116.5 -89t-143.5 -36q-37 0 -71.5 13t-68.5 28.5t-67.5 29t-72.5 13.5q-53 0 -100.5 -21.5t-88.5 -54.5zM385 481q0 -92 51 -151.5t137 -59.5t137.5 59.5t51.5 151.5t-51.5 151.5 t-137.5 59.5t-137 -59.5t-51 -151.5z" />
<glyph unicode="&#xf6;" horiz-adv-x="1146" d="M59 481q0 106 38 200.5t105.5 164t162 109.5t208.5 40q115 0 209.5 -40t162 -109.5t105 -163.5t37.5 -201q0 -109 -37.5 -202t-105 -162.5t-162 -109.5t-209.5 -40t-209 40t-161.5 109.5t-105.5 162.5t-38 202zM234 1128v246h268v-246h-268zM385 481q0 -92 51 -151.5 t137 -59.5t137.5 59.5t51.5 151.5t-51.5 151.5t-137.5 59.5t-137 -59.5t-51 -151.5zM645 1128v246h269v-246h-269z" />
<glyph unicode="&#xf7;" d="M166 512v270h817v-270h-817zM422 131v279h305v-279h-305zM422 885v278h305v-278h-305z" />
<glyph unicode="&#xf8;" horiz-adv-x="1146" d="M59 481q0 106 38 200.5t105.5 164t162 109.5t208.5 40q125 0 226 -47l82 117l131 -92l-80 -115q74 -72 114.5 -168t40.5 -209q0 -109 -37.5 -202t-105 -162.5t-162 -109.5t-209.5 -40q-63 0 -120.5 12.5t-106.5 34.5l-86 -123l-131 93l84 120q-72 72 -113 168.5 t-41 208.5zM375 481q0 -61 22 -110l228 325q-25 6 -52 6q-92 0 -145 -62t-53 -159zM520 266q25 -6 53 -6q92 0 145.5 62.5t53.5 158.5q0 63 -24 111z" />
<glyph unicode="&#xf9;" horiz-adv-x="1169" d="M96 354v609h346v-527q0 -72 30 -114.5t106 -42.5q41 0 68.5 14t45 38.5t24.5 54.5t7 60v517h346v-963h-334l-12 98q-29 -35 -65.5 -59.5t-75.5 -38.5t-75 -20.5t-63 -6.5q-76 0 -139 21.5t-109 68t-73 118t-27 173.5zM326 1397h325l99 -291h-240z" />
<glyph unicode="&#xfa;" horiz-adv-x="1169" d="M96 354v609h346v-527q0 -72 30 -114.5t106 -42.5q41 0 68.5 14t45 38.5t24.5 54.5t7 60v517h346v-963h-334l-12 98q-29 -35 -65.5 -59.5t-75.5 -38.5t-75 -20.5t-63 -6.5q-76 0 -139 21.5t-109 68t-73 118t-27 173.5zM443 1106l98 291h326l-185 -291h-239z" />
<glyph unicode="&#xfb;" horiz-adv-x="1169" d="M96 354v609h346v-527q0 -72 30 -114.5t106 -42.5q41 0 68.5 14t45 38.5t24.5 54.5t7 60v517h346v-963h-334l-12 98q-29 -35 -65.5 -59.5t-75.5 -38.5t-75 -20.5t-63 -6.5q-76 0 -139 21.5t-109 68t-73 118t-27 173.5zM229 1106l221 291h271l219 -291h-272l-84 117 l-80 -117h-275z" />
<glyph unicode="&#xfc;" horiz-adv-x="1169" d="M96 354v609h346v-527q0 -72 30 -114.5t106 -42.5q41 0 68.5 14t45 38.5t24.5 54.5t7 60v517h346v-963h-334l-12 98q-29 -35 -65.5 -59.5t-75.5 -38.5t-75 -20.5t-63 -6.5q-76 0 -139 21.5t-109 68t-73 118t-27 173.5zM244 1128v246h268v-246h-268zM655 1128v246h269v-246 h-269z" />
<glyph unicode="&#xfd;" horiz-adv-x="1173" d="M10 963h393l205 -557l195 557h360l-383 -949q-37 -90 -72.5 -171t-86 -142t-122 -98t-177.5 -37q-76 0 -148 21.5t-137 66.5l129 235q29 -20 65.5 -34.5t65.5 -14.5q47 0 78 17.5t53 76.5l29 78zM467 1106l98 291h326l-185 -291h-239z" />
<glyph unicode="&#xfe;" horiz-adv-x="1167" d="M100 -410v1776h344v-504q27 39 62 62.5t68.5 36t63.5 16.5t50 4q100 0 179 -40t131.5 -106.5t80 -152.5t27.5 -180q0 -127 -39 -225.5t-108.5 -166t-163 -103.5t-199.5 -36q-45 0 -87 8.5t-65 14.5v-404h-344zM446 274q47 -20 121 -20q84 0 137.5 54t53.5 179 q0 33 -8.5 69t-26.5 64.5t-47 47t-68 18.5q-86 0 -124 -53t-38 -133v-226z" />
<glyph unicode="&#xff;" horiz-adv-x="1173" d="M10 963h393l205 -557l195 557h360l-383 -949q-37 -90 -72.5 -171t-86 -142t-122 -98t-177.5 -37q-76 0 -148 21.5t-137 66.5l129 235q29 -20 65.5 -34.5t65.5 -14.5q47 0 78 17.5t53 76.5l29 78zM246 1128v246h268v-246h-268zM657 1128v246h269v-246h-269z" />
<glyph unicode="&#x152;" horiz-adv-x="2170" d="M70 686q0 156 52 288t144 227t216 148.5t268 53.5q78 0 143 -19.5t115.5 -47t84 -58.5t50.5 -53v141h919v-317h-616v-205h506v-299h-506v-226h659v-319h-962v139q-66 -78 -170.5 -125t-237.5 -47q-145 0 -267 54.5t-211 149.5t-138 227t-49 288zM444 686 q0 -78 22.5 -147.5t65.5 -120.5t105.5 -81t142.5 -30t142.5 30t105.5 81t65.5 120.5t22.5 147.5t-22.5 147.5t-65.5 121t-105.5 81t-142.5 29.5t-142.5 -29.5t-105.5 -81t-65.5 -121t-22.5 -147.5z" />
<glyph unicode="&#x153;" horiz-adv-x="1779" d="M59 481q0 106 38 200.5t105.5 164t162 109.5t208.5 40q106 0 188.5 -35.5t141.5 -95.5q61 59 148.5 95t199.5 36q98 0 185.5 -33.5t152 -102t101 -172t36.5 -243.5v-65h-651q2 -25 13.5 -51.5t39 -50t73.5 -38t114 -14.5q88 0 160.5 22.5t113.5 47.5l109 -225 q-25 -14 -63 -32t-89 -33t-114.5 -26.5t-135.5 -11.5q-129 0 -228 33t-169 94q-59 -59 -140 -93t-186 -34q-115 0 -209 40t-161.5 109.5t-105.5 163t-38 201.5zM385 481q0 -92 51 -151.5t137 -59.5t137.5 59.5t51.5 151.5t-51.5 151.5t-137.5 59.5t-137 -59.5t-51 -151.5z M1077 584h342q0 25 -10 51.5t-31.5 49t-53.5 37.5t-77 15q-43 0 -75.5 -15t-53 -37.5t-31 -49.5t-10.5 -51z" />
<glyph unicode="&#x178;" horiz-adv-x="1376" d="M20 1366h416l266 -487l250 487h404l-488 -819v-547h-362v545zM314 1497v262h289v-262h-289zM775 1497v262h288v-262h-288z" />
<glyph unicode="&#x2c6;" horiz-adv-x="901" d="M96 1106l221 291h271l219 -291h-272l-84 117l-80 -117h-275z" />
<glyph unicode="&#x2dc;" horiz-adv-x="901" d="M29 1280q51 55 117.5 91t142.5 36q39 0 72.5 -13.5t67.5 -29.5t68.5 -29.5t71.5 -13.5q53 0 100.5 21.5t88.5 54.5l116 -180q-49 -53 -116.5 -89t-143.5 -36q-37 0 -71.5 13t-68.5 28.5t-67.5 29t-72.5 13.5q-53 0 -100.5 -21.5t-88.5 -54.5z" />
<glyph unicode="&#x2000;" horiz-adv-x="925" />
<glyph unicode="&#x2001;" horiz-adv-x="1851" />
<glyph unicode="&#x2002;" horiz-adv-x="925" />
<glyph unicode="&#x2003;" horiz-adv-x="1851" />
<glyph unicode="&#x2004;" horiz-adv-x="617" />
<glyph unicode="&#x2005;" horiz-adv-x="462" />
<glyph unicode="&#x2006;" horiz-adv-x="308" />
<glyph unicode="&#x2007;" horiz-adv-x="308" />
<glyph unicode="&#x2008;" horiz-adv-x="231" />
<glyph unicode="&#x2009;" horiz-adv-x="370" />
<glyph unicode="&#x200a;" horiz-adv-x="102" />
<glyph unicode="&#x2010;" horiz-adv-x="921" d="M123 408v331h676v-331h-676z" />
<glyph unicode="&#x2011;" horiz-adv-x="921" d="M123 408v331h676v-331h-676z" />
<glyph unicode="&#x2012;" horiz-adv-x="921" d="M123 408v331h676v-331h-676z" />
<glyph unicode="&#x2013;" horiz-adv-x="1024" d="M0 408v331h1024v-331h-1024z" />
<glyph unicode="&#x2014;" horiz-adv-x="2048" d="M0 408v331h2048v-331h-2048z" />
<glyph unicode="&#x2018;" horiz-adv-x="604" d="M82 858l158 508h256l-54 -508h-360z" />
<glyph unicode="&#x2019;" horiz-adv-x="604" d="M106 858l54 508h360l-158 -508h-256z" />
<glyph unicode="&#x201a;" horiz-adv-x="632" d="M117 -166l53 508h360l-157 -508h-256z" />
<glyph unicode="&#x201c;" horiz-adv-x="1060" d="M82 858l158 508h256l-54 -508h-360zM539 858l158 508h256l-54 -508h-360z" />
<glyph unicode="&#x201d;" horiz-adv-x="1060" d="M106 858l54 508h360l-158 -508h-256zM563 858l54 508h360l-158 -508h-256z" />
<glyph unicode="&#x201e;" horiz-adv-x="1089" d="M117 -166l53 508h360l-157 -508h-256zM576 -166l53 508h360l-157 -508h-256z" />
<glyph unicode="&#x2022;" horiz-adv-x="903" d="M143 680q0 63 25 119.5t65.5 97.5t97 65.5t120.5 24.5q63 0 119.5 -24.5t98.5 -65.5t66.5 -97.5t24.5 -119.5t-24.5 -119.5t-66.5 -97.5t-98.5 -65.5t-119.5 -24.5t-120 24.5t-97.5 65.5t-65.5 97.5t-25 119.5z" />
<glyph unicode="&#x2026;" horiz-adv-x="1867" d="M113 0v371h372v-371h-372zM748 0v371h372v-371h-372zM1383 0v371h372v-371h-372z" />
<glyph unicode="&#x202f;" horiz-adv-x="370" />
<glyph unicode="&#x2039;" horiz-adv-x="763" d="M98 496l215 407h344l-213 -407l213 -412h-344z" />
<glyph unicode="&#x203a;" horiz-adv-x="763" d="M106 84l213 412l-213 407h345l215 -407l-215 -412h-345z" />
<glyph unicode="&#x205f;" horiz-adv-x="462" />
<glyph unicode="&#x20ac;" d="M0 406l68 178h118q-2 16 -2 31.5v31.5v49h-157l65 178h119q25 96 70 179.5t112.5 143.5t158.5 95t208 35q109 0 212 -39t175 -123l-180 -229q-35 37 -85.5 61.5t-101.5 24.5q-80 0 -129 -42t-76 -106h302l-66 -178h-272q-2 -14 -2 -26.5v-24.5v-30.5t2 -30.5h313 l-68 -178h-202q27 -59 75 -97.5t123 -38.5q59 0 108.5 22.5t84.5 59.5l174 -225q-72 -84 -175.5 -123t-211.5 -39q-115 0 -205 34t-157.5 93.5t-112.5 139t-70 174.5h-215z" />
<glyph unicode="&#x2122;" horiz-adv-x="1835" d="M57 1157v209h742v-209h-246v-575h-250v575h-246zM850 582l37 784h223l188 -324l191 324h223l37 -784h-233l-21 411l-127 -229h-135l-137 229l-15 -411h-231z" />
<glyph unicode="&#x25fc;" horiz-adv-x="962" d="M0 0v963h963v-963h-963z" />
</font>
</defs></svg> 